test_run_dir/GameBoySoC_should_run_a_tiny_program/GameBoySoC.vcd
$date
2025-12-07T10:45+0000
$end
$version
0.2
$end
$comment

$end
$timescale 1ns  $end
$scope module GameBoySoC $end
 $var wire 1 ' cpu $end
 $var wire 8 ^ io_dbg_mcycle $end
 $var wire 8 i io_dbg_h $end
 $var wire 8 j io_dbg_l $end
 $var wire 8 k io_dbg_a $end
 $var wire 8 l io_dbg_b $end
 $var wire 8 m io_dbg_e $end
 $var wire 8 n io_dbg_f $end
 $var wire 8 o io_dbg_c $end
 $var wire 8 p io_dbg_d $end
 $var wire 8 "' io_dbg_state $end
 $var wire 16 "0 io_dbg_pc $end
 $var wire 1 #a clock $end
 $var wire 8 #| io_dbg_IR $end
 $var wire 8 #} io_dbg_opcode $end
 $var wire 1 #~ reset $end
 $var wire 8 $. io_dbg_tcycle $end
 $var wire 1 $2 bus $end
  $scope module bus $end
   $var wire 8 4 wram $end
   $var wire 8 9 io_cpuReadData $end
   $var wire 1 A wram_wramOut_en_pipe_0 $end
   $var wire 13 H wram_wramOut_addr_pipe_0 $end
   $var wire 8 R regIF $end
   $var wire 8 S regIE $end
   $var wire 1 Y io_cpuWrite $end
   $var wire 1 ] clock $end
   $var wire 8 s rdata $end
   $var wire 8 z hram_1 $end
   $var wire 8 { hram_2 $end
   $var wire 8 | hram_0 $end
   $var wire 8 ~ hram_9 $end
   $var wire 8 "! hram_7 $end
   $var wire 8 "" hram_8 $end
   $var wire 8 "# hram_5 $end
   $var wire 8 "$ hram_6 $end
   $var wire 8 "% hram_3 $end
   $var wire 8 "& hram_4 $end
   $var wire 16 "* io_cpuAddress $end
   $var wire 13 "- wramReadAddr $end
   $var wire 1 "/ wramReadEn $end
   $var wire 8 "8 hram_99 $end
   $var wire 8 "9 hram_98 $end
   $var wire 8 ": hram_97 $end
   $var wire 8 "; hram_96 $end
   $var wire 8 "< hram_91 $end
   $var wire 8 "= hram_90 $end
   $var wire 8 "> hram_95 $end
   $var wire 8 "? hram_94 $end
   $var wire 8 "@ hram_93 $end
   $var wire 8 "A hram_92 $end
   $var wire 8 "B hram_88 $end
   $var wire 8 "C hram_87 $end
   $var wire 8 "D hram_86 $end
   $var wire 8 "E hram_85 $end
   $var wire 8 "F hram_89 $end
   $var wire 8 "G hram_80 $end
   $var wire 8 "H hram_84 $end
   $var wire 8 "I hram_83 $end
   $var wire 8 "J hram_82 $end
   $var wire 8 "K hram_81 $end
   $var wire 8 "M hram_77 $end
   $var wire 8 "N hram_76 $end
   $var wire 8 "O hram_75 $end
   $var wire 8 "P hram_74 $end
   $var wire 8 "Q hram_79 $end
   $var wire 8 "R hram_78 $end
   $var wire 8 "S hram_73 $end
   $var wire 8 "T hram_72 $end
   $var wire 8 "U hram_71 $end
   $var wire 8 "V hram_70 $end
   $var wire 8 "W hram_66 $end
   $var wire 8 "X hram_65 $end
   $var wire 8 "Y hram_64 $end
   $var wire 8 "Z hram_63 $end
   $var wire 8 "[ hram_69 $end
   $var wire 8 "\ hram_68 $end
   $var wire 8 "] hram_67 $end
   $var wire 8 "^ hram_62 $end
   $var wire 8 "_ hram_61 $end
   $var wire 8 "` hram_60 $end
   $var wire 8 "a hram_49 $end
   $var wire 8 "b hram_55 $end
   $var wire 8 "c hram_54 $end
   $var wire 8 "d hram_53 $end
   $var wire 8 "e hram_52 $end
   $var wire 8 "f hram_59 $end
   $var wire 8 "g hram_58 $end
   $var wire 8 "h hram_57 $end
   $var wire 8 "i hram_56 $end
   $var wire 1 "j io_cpuRead $end
   $var wire 8 "k hram_51 $end
   $var wire 8 "l hram_50 $end
   $var wire 8 "n hram_39 $end
   $var wire 8 "o hram_38 $end
   $var wire 8 "p hram_44 $end
   $var wire 8 "r hram_43 $end
   $var wire 8 "s hram_42 $end
   $var wire 8 "t hram_41 $end
   $var wire 8 "u hram_48 $end
   $var wire 8 "v hram_47 $end
   $var wire 8 "w hram_46 $end
   $var wire 8 "x hram_45 $end
   $var wire 8 "~ hram_40 $end
   $var wire 8 #( hram_29 $end
   $var wire 8 #) hram_28 $end
   $var wire 8 #* hram_27 $end
   $var wire 8 #+ hram_33 $end
   $var wire 8 #- hram_32 $end
   $var wire 8 #. hram_31 $end
   $var wire 8 #/ hram_30 $end
   $var wire 8 #0 hram_37 $end
   $var wire 8 #1 hram_36 $end
   $var wire 8 #2 hram_35 $end
   $var wire 8 #3 hram_34 $end
   $var wire 8 #4 hram_19 $end
   $var wire 8 #5 hram_18 $end
   $var wire 8 #6 hram_17 $end
   $var wire 8 #7 hram_16 $end
   $var wire 8 #8 hram_22 $end
   $var wire 8 #9 hram_21 $end
   $var wire 8 #: hram_20 $end
   $var wire 8 #; hram_101 $end
   $var wire 8 #< hram_26 $end
   $var wire 8 #= hram_100 $end
   $var wire 8 #> hram_25 $end
   $var wire 8 #? hram_24 $end
   $var wire 8 #@ hram_23 $end
   $var wire 8 #A hram_105 $end
   $var wire 8 #B hram_104 $end
   $var wire 8 #C hram_103 $end
   $var wire 8 #D hram_102 $end
   $var wire 8 #E hram_109 $end
   $var wire 8 #F hram_108 $end
   $var wire 8 #G hram_107 $end
   $var wire 8 #H hram_106 $end
   $var wire 8 #I hram_11 $end
   $var wire 8 #J hram_10 $end
   $var wire 8 #K hram_112 $end
   $var wire 8 #L hram_15 $end
   $var wire 8 #M hram_111 $end
   $var wire 8 #N hram_14 $end
   $var wire 8 #O hram_110 $end
   $var wire 8 #P hram_13 $end
   $var wire 8 #Q hram_12 $end
   $var wire 8 #R hram_116 $end
   $var wire 8 #S hram_115 $end
   $var wire 8 #T hram_114 $end
   $var wire 8 #U hram_113 $end
   $var wire 8 #W hram_119 $end
   $var wire 8 #X hram_118 $end
   $var wire 8 #Y hram_117 $end
   $var wire 8 #Z hram_123 $end
   $var wire 8 #[ hram_122 $end
   $var wire 8 #\ hram_121 $end
   $var wire 8 #] hram_120 $end
   $var wire 8 #^ hram_126 $end
   $var wire 8 #_ hram_125 $end
   $var wire 8 #` hram_124 $end
   $var wire 1 $# reset $end
   $var wire 8 $& io_cpuWriteData $end
   $var wire 8 $: rom $end
    $scope module wram $end
     $var wire 8 u MPORT $end
      $scope module MPORT $end
       $var wire 13 $ pipeline_addr_0 $end
       $var wire 1 Z pipeline_valid_0 $end
       $var wire 13 e addr $end
       $var wire 1 x clk $end
       $var wire 8 y data $end
       $var wire 1 "+ valid $end
       $var wire 1 $! en $end
       $var wire 8 $/ pipeline_data_0 $end
       $var wire 1 $1 mask $end
      $upscope $end
      $scope module wramOut $end
       $var wire 1 h clk $end
       $var wire 1 #, en $end
       $var wire 13 $" addr $end
       $var wire 8 $6 data $end
      $upscope $end
    $upscope $end
    $scope module rom $end
      $scope module rdata_MPORT $end
       $var wire 15 T addr $end
       $var wire 1 U en $end
       $var wire 1 a clk $end
       $var wire 8 ", data $end
      $upscope $end
    $upscope $end
  $upscope $end
  $scope module cpu.u_alu $end
  $upscope $end
  $scope module cpu $end
   $var wire 8 ! u_src $end
   $var wire 1 " needsImm8 $end
   $var wire 8 # busWriteData $end
   $var wire 8 % io_dbg_IR $end
   $var wire 9 & u_off $end
   $var wire 2 ) u_out_F_hi_hi $end
   $var wire 5 * u_out_F_lo_13 $end
   $var wire 5 + u_out_F_lo_14 $end
   $var wire 5 , u_out_F_lo_10 $end
   $var wire 5 - u_out_F_lo_11 $end
   $var wire 5 . u_out_F_lo_12 $end
   $var wire 2 / u_out_F_hi_hi_14 $end
   $var wire 2 0 u_out_F_hi_hi_13 $end
   $var wire 2 1 u_out_F_hi_hi_10 $end
   $var wire 2 2 u_out_F_hi_hi_12 $end
   $var wire 2 3 u_out_F_hi_hi_11 $end
   $var wire 5 5 u_out_F_lo_8 $end
   $var wire 5 6 u_out_F_lo_9 $end
   $var wire 5 7 u_out_F_lo_6 $end
   $var wire 5 8 u_out_F_lo_7 $end
   $var wire 5 : u_out_F_lo_4 $end
   $var wire 5 ; u_out_F_lo_5 $end
   $var wire 5 < u_out_F_lo_2 $end
   $var wire 5 = u_out_F_lo_3 $end
   $var wire 5 > u_out_F_lo_1 $end
   $var wire 5 C u_dst_2 $end
   $var wire 5 D u_dst_3 $end
   $var wire 5 E u_dst_4 $end
   $var wire 5 G u_dst_1 $end
   $var wire 8 I u_L $end
   $var wire 8 J u_H $end
   $var wire 8 K u_F $end
   $var wire 8 L u_E $end
   $var wire 8 M u_D $end
   $var wire 8 N u_C $end
   $var wire 8 O u_B $end
   $var wire 8 P u_A $end
   $var wire 5 Q u_out_F_lo $end
   $var wire 3 X u_out_F_hi $end
   $var wire 1 \ busWrite $end
   $var wire 8 _ u_oldVal_1 $end
   $var wire 1 ` mcBus_memWrite $end
   $var wire 16 b imm16 $end
   $var wire 8 c io_dbg_opcode $end
   $var wire 1 d busRead $end
   $var wire 1 f mcBus_memRead $end
   $var wire 16 g u_PC $end
   $var wire 1 q clock $end
   $var wire 8 r io_dbg_mcycle $end
   $var wire 16 t u_imm16 $end
   $var wire 16 v u_HL $end
   $var wire 1 w reset $end
   $var wire 16 } io_dbg_pc $end
   $var wire 8 "( mcBus_memWriteData $end
   $var wire 16 ") mcBus_memAddr $end
   $var wire 8 "2 io_memReadData $end
   $var wire 8 "4 io_dbg_l $end
   $var wire 8 "5 L $end
   $var wire 8 "6 H $end
   $var wire 8 "7 F $end
   $var wire 5 "L u_dst $end
   $var wire 16 "m busAddr $end
   $var wire 8 "y E $end
   $var wire 8 "z D $end
   $var wire 8 "{ C $end
   $var wire 8 "| B $end
   $var wire 8 "} A $end
   $var wire 8 #! io_dbg_a $end
   $var wire 8 #" io_dbg_b $end
   $var wire 8 ## io_dbg_c $end
   $var wire 8 #$ io_dbg_d $end
   $var wire 8 #% io_dbg_e $end
   $var wire 8 #& io_dbg_f $end
   $var wire 8 #' io_dbg_h $end
   $var wire 8 #V imm8 $end
   $var wire 8 #c u_src_5 $end
   $var wire 8 #d u_src_6 $end
   $var wire 8 #e u_src_3 $end
   $var wire 8 #f u_src_4 $end
   $var wire 8 #g u_src_1 $end
   $var wire 8 #h u_src_2 $end
   $var wire 3 #i u_out_F_hi_8 $end
   $var wire 3 #j u_out_F_hi_9 $end
   $var wire 1 #k u_done $end
   $var wire 3 #l u_out_F_hi_4 $end
   $var wire 3 #m u_out_F_hi_5 $end
   $var wire 3 #n u_out_F_hi_6 $end
   $var wire 3 #o u_out_F_hi_7 $end
   $var wire 3 #p u_out_F_hi_1 $end
   $var wire 3 #q u_out_F_hi_2 $end
   $var wire 1 #r io_memRead $end
   $var wire 3 #s u_out_F_hi_3 $end
   $var wire 2 #t tcycle $end
   $var wire 1 #u io_memWrite $end
   $var wire 3 #v mcycle $end
   $var wire 3 #w u_out_F_hi_10 $end
   $var wire 3 #x u_out_F_hi_12 $end
   $var wire 3 #y u_out_F_hi_11 $end
   $var wire 3 #z u_out_F_hi_14 $end
   $var wire 3 #{ u_out_F_hi_13 $end
   $var wire 1 $$ u_alu $end
   $var wire 8 $% IR $end
   $var wire 8 $' u_imm8 $end
   $var wire 16 $( PC $end
   $var wire 8 $- io_dbg_state $end
   $var wire 16 $0 io_memAddr $end
   $var wire 8 $3 u_oldVal $end
   $var wire 1 $4 isLDrImm $end
   $var wire 8 $7 io_memWriteData $end
   $var wire 3 $8 u_next_mcycle $end
   $var wire 1 $9 needsImm16 $end
   $var wire 8 $; mcBus_memReadData $end
   $var wire 2 $< u_out_F_hi_hi_7 $end
   $var wire 2 $= u_out_F_hi_hi_6 $end
   $var wire 2 $> u_out_F_hi_hi_9 $end
   $var wire 2 $? u_out_F_hi_hi_8 $end
   $var wire 2 $@ u_out_F_hi_hi_3 $end
   $var wire 2 $A u_out_F_hi_hi_2 $end
   $var wire 2 $B u_out_F_hi_hi_5 $end
   $var wire 2 $C u_out_F_hi_hi_4 $end
   $var wire 2 $D u_out_F_hi_hi_1 $end
   $var wire 8 $E io_dbg_tcycle $end
   $var wire 3 $F state $end
    $scope module u_alu $end
     $var wire 8 ( io_out $end
     $var wire 1 ? io_flagC $end
     $var wire 1 @ io_flagH $end
     $var wire 1 B io_flagN $end
     $var wire 1 F io_flagZ $end
     $var wire 8 V io_a $end
     $var wire 8 W io_b $end
     $var wire 8 [ diff $end
     $var wire 8 ". sum $end
     $var wire 8 "1 sumc $end
     $var wire 8 "3 diffc $end
     $var wire 4 "q io_op $end
     $var wire 8 #b r $end
     $var wire 8 $) r_2 $end
     $var wire 8 $* r_1 $end
     $var wire 8 $+ r_4 $end
     $var wire 8 $, r_3 $end
     $var wire 1 $5 io_carryIn $end
    $upscope $end
  $upscope $end
$upscope $end
$enddefinitions $end
$dumpvars
b00000000 k
b00000000 j
b00000000 m
b00000000 l
b00000000 i
b00 1
b00000000 c
b00 0
b00 /
b0000 "q
b00000000 _
b00000000 ^
b00 3
0?
b00 2
0@
b00 )
b00000000 {
0A
b00000000 z
0B
b00000000 |
0F
b00000000 y
b00000000 s
b00000000 r
b00000000 u
b00000000 o
b00000000 n
b00000000 p
b0000000000000 e
b00000000 K
b00000000 J
b00000000 M
b00000000 L
0U
b00000000 I
0Y
0Z
0\
0]
0`
b00000000 [
0a
0d
b00000000 W
b00000000 V
0f
0h
b00000000 S
b00000000 R
b00000000 O
b00000000 N
b00000000 P
0q
b0000000000000 H
0w
0x
b0000000000000000 ")
b0000000000000000 "*
b00 #t
b0000000000000000 "0
b0000000000000 $
b00 $=
b00 $<
b00 $C
b00 $B
b00 $D
b00 $?
b00 $>
b00000000 ~
b00 $A
b00 $@
0"+
0"/
1$1
b00000000 "g
b00000000 #H
b00000000 $)
b00000000 "f
b00000000 #G
b00000000 "e
b00000000 #F
b00000000 $'
b00000000 "d
b00000000 #E
b00000000 $&
b00000000 "k
b00000000 #L
b00000000 $-
b00000000 #K
b00000000 $,
b00000 "L
b00000000 "i
b00000000 #J
b00000000 $+
b00000000 "h
b00000000 #I
b00000000 $*
b00000000 "o
b00000000 #P
b00000000 "n
b00000000 #O
b00000000 #N
b00000000 $/
b00000000 "l
b00000000 #M
b00000000 $.
b00000000 "s
b00000000 #T
b00000000 "r
b00000000 #S
b00000000 #R
b00000000 $3
b00000000 "p
b00000000 #Q
b00000000 "w
b00000000 #X
b00000000 "v
b00000000 #W
b00000000 "u
b00000000 #V
b00000000 $7
b00000000 "t
b00000000 #U
b00000000 $6
b00000000 "{
b00000000 #\
b00000000 "z
b00000000 #[
b00000000 "y
b00000000 #Z
b00000000 $;
b00000000 "x
b00000000 #Y
b00000000 $:
b00000000 #`
0#,
b00000000 "~
b00000000 #_
b00000000 "}
b00000000 #^
b00000000 "|
b00000000 #]
b00000000 #d
b00000000 $E
b00000000 #c
b00000000 #b
b00000000 #h
b00000000 #g
b00000000 #f
b00000000 #e
b0000000000000 $"
0$!
0$#
0$$
b000 X
b00000000 #|
0"j
b00000000 #}
0$2
0$4
0$5
0$9
0#a
0#k
0#r
b0000000000000 "-
0#u
0#~
b000000000 &
b00000000 "#
b00000000 ""
b00000000 "!
b000 #w
b00000000 "'
b000 #x
b00000000 "&
b00000000 "%
b000 #v
b00000000 "$
b000 #s
b000 #q
b00000000 "(
b00000000 ".
b00000000 ",
b000 #{
b00000000 "3
b00000000 "2
b000 #y
b00000000 "1
b000 #z
b00000000 "7
b00000000 "6
b00000000 "5
b00000000 "4
b00000000 ";
b00000000 ":
b00000000 "9
b00000000 "8
b00000000 "?
b00000000 ">
b00000000 "=
b00000000 "<
b00000000 "C
b00000000 #$
b00000000 "B
b00000000 ##
b00000000 "A
b00000000 #"
b00000000 "@
b00000000 #!
b00000000 "G
b00000000 #(
b00000000 "F
b00000000 #'
b00000000 "E
b00000000 #&
b00000000 "D
b00000000 #%
b00000000 "K
b00000000 "J
b00000000 #+
b00000000 "I
b00000000 #*
b00000000 "H
b00000000 #)
b00000000 "O
b00000000 #0
b00000000 "N
b00000000 #/
b00000000 "M
b00000000 #.
b000000000000000 T
b00000000 #-
b00000000 "S
b00000000 #4
b00000000 "R
b00000000 #3
b00000000 "Q
b00000000 #2
b00000000 "P
b00000000 #1
b00000000 "W
b00000000 #8
b00000000 "V
b00000000 #7
b00000000 "U
b00000000 #6
b00000000 "T
b00000000 #5
b00000000 "[
b00000000 #<
b00000000 "Z
b00000000 #;
b00000000 "Y
b00000000 #:
b00000000 "X
b00000000 #9
b00000000 "_
b00000000 #@
b00000000 "^
b00000000 #?
b00000000 "]
b00000000 #>
b00000000 "\
b00000000 #=
b00000000 "c
b00000000 #D
b00000000 $%
b00000000 "b
b00000000 #C
b00000000 "a
b00000000 #B
b00000000 "`
b00000000 #A
b0000000000000000 $(
b00000 +
b00000 *
b0000000000000000 "m
b00000 -
b0000000000000000 $0
b00000 ,
b00000 .
b000 $8
b00000 5
b00000 7
b00000 6
b00000 8
b00000 ;
b00000 :
b00000 =
b00000 <
b00000 >
b00000 C
b000 $F
b00000 E
b00000 D
b00000 G
b000 #o
b000 #p
b000 #m
b000 #n
b000 #l
b000 #i
b00000 Q
b000 #j
b0000000000000000 b
b00000000 (
b00000000 #
b0000000000000000 g
b00000000 %
b00000000 !
b0000000000000000 t
b00000000 9
b0000000000000000 v
b00000000 4
b0000000000000000 }
0"
0'
$end
#0
1F
b11111111 $+
1"j
b00000001 $,
1U
b100 X
b10 $<
b10 $=
b10 $>
b10 $?
b10 $@
b10 $A
b10 $B
b10 $C
b10 $D
1d
b100 #i
b100 #j
b10 )
b100 #l
b100 #m
b100 #n
b100 #o
b100 #p
b100 #q
b10 /
1#r
b10 0
b100 #s
b10 1
b10 2
b10 3
b100 #w
b100 #x
b100 #y
1w
b100 #z
b100 #{
1#~
1$#
#1
1a
1q
1h
1x
1]
1#a
#6
0a
0q
0w
0h
0x
0#~
0]
0#a
0$#
#11
1a
1q
b00000001 $E
b01 #t
1h
1x
b00000001 $.
1]
1#a
#16
0a
0q
0h
0x
0]
0#a
#21
1a
1q
b00000010 $E
b10 #t
1h
1x
b00000010 $.
1]
1#a
#26
0a
0q
0h
0x
0]
0#a
#31
1a
1q
b00000011 $E
b11 #t
1h
1x
1#k
b00000011 $.
1]
1#a
#36
0a
0q
0h
0x
0]
0#a
#41
1a
b00000000 $E
b100 $F
0d
b0000000000000001 $(
b00000100 "'
b0000000000000001 g
1h
0"j
0#k
b00000100 $-
b00000000 $.
b0000000000000001 "0
0#r
1q
b00 #t
0U
1x
1]
b0000000000000001 }
1#a
#46
0a
0q
0h
0x
0]
0#a
#51
1a
1q
b00000001 $E
b01 #t
1h
1x
b00000001 $.
1]
1#a
#56
0a
0q
0h
0x
0]
0#a
#61
1a
1q
b00000010 $E
b10 #t
1h
1x
b00000010 $.
1]
1#a
#66
0a
0q
0h
0x
0]
0#a
#71
1a
1q
b00000011 $E
b11 #t
1h
1x
1#k
b00000011 $.
1]
1#a
#76
0a
0q
0h
0x
0]
0#a
#81
b00000000 "'
b0000000000000001 "*
1"j
b00000000 $-
b00111110 ",
b00000000 $.
b0000000000000001 "m
b0000000000000001 $0
b00111110 "2
b000000000000001 T
1U
b00111110 $;
1]
1#a
1a
b00000000 $E
b000 $F
1d
b0000000000001 e
1h
0#k
1#r
1q
b00 #t
b00111110 s
1x
b00111110 9
#86
0a
0q
0h
0x
0]
0#a
#91
1a
1q
b00000001 $E
b01 #t
b0000000000001 $
1h
1x
b00000001 $.
1]
1#a
#96
0a
0q
0h
0x
0]
0#a
#101
1a
1q
b00000010 $E
b10 #t
1h
1x
b00000010 $.
1]
1#a
#106
0a
0q
0h
0x
0]
0#a
#111
b00111110 $%
b00111 C
b00111 D
b00111 E
b00111 G
b00000011 $.
1$4
1]
1#a
b00000110 !
1a
b00000011 $E
1"
b00111110 c
b00000110 #g
b00111110 %
1h
1#k
b00111 "L
1q
b11 #t
1x
b00111110 #|
b00111110 #}
#116
0a
0q
0h
0x
0]
0#a
#121
b0000000000000010 $(
b00000001 "'
b0000000000000010 "*
b00000001 $-
b00010000 ",
b00000000 $.
b0000000000000010 "m
b0000000000000010 $0
b0000000000000010 "0
b00010000 "2
b000000000000010 T
b00010000 $;
1]
1#a
1a
b00000000 $E
b001 $F
b0000000000010 e
b0000000000000010 g
1h
0#k
1q
b00 #t
b00010000 s
1x
b00010000 9
b0000000000000010 }
#126
0a
0q
0h
0x
0]
0#a
#131
1a
1q
b00000001 $E
b01 #t
b0000000000010 $
1h
1x
b00000001 $.
1]
1#a
#136
0a
0q
0h
0x
0]
0#a
#141
1a
1q
b00000010 $E
b10 #t
1h
1x
b00000010 $.
1]
1#a
#146
0a
0q
0h
0x
0]
0#a
#151
1a
b00000011 $E
b00010000 $'
b000010000 &
1h
1#k
b00000011 $.
b00010000 P
1q
b11 #t
b00010000 #V
1x
1]
1#a
#156
0a
0q
0h
0x
0]
0#a
#161
b0000000000000011 $(
b00000100 "'
b0000000000000000 "*
0"j
b00000100 $-
b00000000 ",
b00000000 $.
b0000000000000000 "m
b0000000000000000 $0
b0000000000000011 "0
b00000000 "2
b000000000000000 T
0U
b00000000 $;
1]
1#a
1a
b00000000 $E
b100 $F
0d
b0000000000000 e
b0000000000000011 g
1h
0#k
0#r
1q
b00 #t
b00000000 s
1x
b00000000 9
b0000000000000011 }
#166
0a
0q
0h
0x
0]
0#a
#171
1a
1q
b00000001 $E
b01 #t
b0000000000000 $
1h
1x
b00000001 $.
1]
1#a
#176
0a
0q
0h
0x
0]
0#a
#181
1a
1q
b00000010 $E
b10 #t
1h
1x
b00000010 $.
1]
1#a
#186
0a
0q
0h
0x
0]
0#a
#191
1a
1q
b00000011 $E
b11 #t
1h
1x
1#k
b00000011 $.
1]
1#a
#196
0a
0q
0h
0x
0]
0#a
#201
b00000000 "'
b0000000000000011 "*
1"j
b00000000 $-
b00111100 ",
b00000000 $.
b0000000000000011 "m
b0000000000000011 $0
b00010000 $3
b00111100 "2
b000000000000011 T
1U
b00111100 $;
b00010000 "}
1]
b00010000 #!
1#a
b00010000 _
1a
b00000000 $E
b000 $F
1d
b0000000000011 e
1h
0#k
b00010000 k
1#r
1q
b00 #t
b00111100 s
1x
b00111100 9
#206
0a
0q
0h
0x
0]
0#a
#211
1a
1q
b00000001 $E
b01 #t
b0000000000011 $
1h
1x
b00000001 $.
1]
1#a
#216
0a
0q
0h
0x
0]
0#a
#221
1a
1q
b00000010 $E
b10 #t
1h
1x
b00000010 $.
1]
1#a
#226
0a
0q
0h
0x
0]
0#a
#231
b00111100 $%
b00010000 $)
b00010000 $*
b00001111 $+
b00010001 $,
b00000011 $.
b1000 "q
0$4
b00 $<
b00 $=
b00 $>
b00 $?
b00 $@
b00 $A
1#a
b00 $B
b00 $C
b00 $D
b00000100 !
b00000011 $E
0"
b00000100 #g
b00111100 %
b000 #i
b000 #j
b00010001 (
1#k
b00 )
b000 #l
b000 #m
b000 #n
b000 #o
b000 #p
b000 #q
b00 /
b00 0
b000 #s
b00 1
b11 #t
b00 2
b00 3
b000 #w
b000 #x
b000 #y
b000 #z
b000 #{
b00111100 #|
b00111100 #}
0F
b00010000 ".
b00010000 "1
b00010001 P
b00010000 "3
b00010000 V
b000 X
b00010000 [
1]
1a
b00111100 c
1h
1q
1x
#236
0a
0q
0h
0x
0]
0#a
#241
b0000000000000100 $(
b00000100 "'
b0000000000000000 "*
0"j
b00000100 $-
b00000000 ",
b00000000 $.
b0000000000000000 "m
b0000000000000000 $0
b0000000000000100 "0
b00000000 "2
b000000000000000 T
0U
b00000000 $;
1]
1#a
1a
b00000000 $E
b100 $F
0d
b0000000000000 e
b0000000000000100 g
1h
0#k
0#r
1q
b00 #t
b00000000 s
1x
b00000000 9
b0000000000000100 }
#246
0a
0q
0h
0x
0]
0#a
#251
1a
1q
b00000001 $E
b01 #t
b0000000000000 $
1h
1x
b00000001 $.
1]
1#a
#256
0a
0q
0h
0x
0]
0#a
#261
1a
1q
b00000010 $E
b10 #t
1h
1x
b00000010 $.
1]
1#a
#266
0a
0q
0h
0x
0]
0#a
#271
1a
1q
b00000011 $E
b11 #t
1h
1x
1#k
b00000011 $.
1]
1#a
#276
0a
0q
0h
0x
0]
0#a
#281
b00000000 "'
b00010001 $)
b00010001 $*
b00010000 $+
b0000000000000100 "*
1"j
b00010010 $,
b00000000 $-
b00111101 ",
b00000000 $.
b0000000000000100 "m
b00010001 ".
b0000000000000100 $0
b00010001 "1
b00010001 $3
b00010010 P
b00111101 "2
b00010001 "3
b000000000000100 T
1U
b00010001 V
b00111101 $;
b00010001 [
b00010001 "}
1]
b00010001 #!
1#a
b00010001 _
1a
b00000000 $E
b000 $F
1d
b0000000000100 e
b00010010 (
1h
0#k
b00010001 k
1#r
1q
b00 #t
b00111101 s
1x
b00111101 9
#286
0a
0q
0h
0x
0]
0#a
#291
1a
1q
b00000001 $E
b01 #t
b0000000000100 $
1h
1x
b00000001 $.
1]
1#a
#296
0a
0q
0h
0x
0]
0#a
#301
1a
1q
b00000010 $E
b10 #t
1h
1x
b00000010 $.
1]
1#a
#306
0a
0q
0h
0x
0]
0#a
#311
b00111101 $%
b00000011 $.
b1001 "q
b01 $<
b01 $=
b01 $>
b01 $?
b01 $@
b01 $A
1#a
b01 $B
b01 $D
b00000101 !
b00000011 $E
b00000101 #g
b00111101 %
b010 #i
b010 #j
b00010000 (
1#k
b01 )
b010 #m
b010 #n
b010 #o
b010 #p
b010 #q
b01 /
b01 0
b010 #s
b01 1
b11 #t
b01 2
b01 3
b010 #w
b010 #x
b010 #y
b010 #z
b010 #{
b00111101 #|
b00111101 #}
1B
b01000000 K
b00010000 P
b010 X
1]
1a
b00111101 c
1h
1q
1x
#316
0a
0q
0h
0x
0]
0#a
#321
b0000000000000101 $(
b00000100 "'
b0000000000000000 "*
0"j
b00000100 $-
b00000000 ",
b00000000 $.
b0000000000000000 "m
b0000000000000000 $0
b0000000000000101 "0
b00000000 "2
b000000000000000 T
0U
b00000000 $;
1]
1#a
1a
b00000000 $E
b100 $F
0d
b0000000000000 e
b0000000000000101 g
1h
0#k
0#r
1q
b00 #t
b00000000 s
1x
b00000000 9
b0000000000000101 }
#326
0a
0q
0h
0x
0]
0#a
#331
1a
1q
b00000001 $E
b01 #t
b0000000000000 $
1h
1x
b00000001 $.
1]
1#a
#336
0a
0q
0h
0x
0]
0#a
#341
1a
1q
b00000010 $E
b10 #t
1h
1x
b00000010 $.
1]
1#a
#346
0a
0q
0h
0x
0]
0#a
#351
1a
1q
b00000011 $E
b11 #t
1h
1x
1#k
b00000011 $.
1]
1#a
#356
0a
0q
0h
0x
0]
0#a
#361
b00010000 $)
b00010000 $*
b00001111 $+
1"j
b00010001 $,
b00000000 $-
b00000000 $.
b0000000000000101 "m
b0000000000000101 $0
b00010000 $3
b00000110 $;
b00010000 "}
1#a
b00000000 $E
b000 $F
b011 #i
b011 #j
b00001111 (
0#k
b001 #l
b011 #m
b011 #n
b011 #o
b011 #p
b011 #q
1#r
b011 #s
b00 #t
b011 #w
b011 #x
b011 #y
b011 #z
b011 #{
b00000110 9
1@
b00000000 "'
b0000000000000101 "*
b00000110 ",
b01100000 K
b00010000 ".
b00010000 "1
b00001111 P
b00000110 "2
b00010000 "3
b000000000000101 T
1U
b01000000 "7
b00010000 V
b011 X
b00010000 [
1]
b00010000 #!
b00010000 _
1a
b01000000 #&
1d
b0000000000101 e
1h
b00010000 k
b01000000 n
1q
b00000110 s
1x
#366
0a
0q
0h
0x
0]
0#a
#371
1a
1q
b00000001 $E
b01 #t
b0000000000101 $
1h
1x
b00000001 $.
1]
1#a
#376
0a
0q
0h
0x
0]
0#a
#381
1a
1q
b00000010 $E
b10 #t
1h
1x
b00000010 $.
1]
1#a
#386
0a
0q
0h
0x
0]
0#a
#391
b00000110 $%
b00000000 $)
b00000000 $*
b11111111 $+
b00000001 $,
b00000011 $.
b00000000 $3
b0000 "q
1$4
b10 $<
b10 $=
b10 $>
b10 $?
b10 $@
b10 $A
1#a
b10 $B
b10 $C
b10 $D
b00000110 !
b00000011 $E
1"
b00000110 #g
b00000110 %
b100 #i
b100 #j
b00000000 (
1#k
b10 )
b100 #l
b100 #m
b100 #n
b100 #o
b100 #p
b100 #q
b10 /
b10 0
b100 #s
b10 1
b11 #t
b10 2
b10 3
b100 #w
b100 #x
b100 #y
b100 #z
b100 #{
b00000110 #|
b00000110 #}
0@
0B
b00000 C
b00000 D
b00000 E
1F
b00000 G
b01000000 K
b00000000 ".
b00010000 O
b00000000 "1
b00010000 P
b00000000 "3
b00000000 V
b100 X
b00000000 [
1]
b00000000 _
1a
b00000110 c
1h
b00000 "L
1q
1x
#396
0a
0q
0h
0x
0]
0#a
#401
b0000000000000110 $(
b00000001 "'
b0000000000000110 "*
b00000001 $-
b00000101 ",
b00000000 $.
b0000000000000110 "m
b0000000000000110 $0
b0000000000000110 "0
b00000101 "2
b000000000000110 T
b00000101 $;
1]
1#a
1a
b00000000 $E
b001 $F
b0000000000110 e
b0000000000000110 g
1h
0#k
1q
b00 #t
b00000101 s
1x
b00000101 9
b0000000000000110 }
#406
0a
0q
0h
0x
0]
0#a
#411
1a
1q
b00000001 $E
b01 #t
b0000000000110 $
1h
1x
b00000001 $.
1]
1#a
#416
0a
0q
0h
0x
0]
0#a
#421
1a
1q
b00000010 $E
b10 #t
1h
1x
b00000010 $.
1]
1#a
#426
0a
0q
0h
0x
0]
0#a
#431
1a
b00000011 $E
b00000101 $'
b000000101 &
1h
1#k
b00000011 $.
b00000101 O
1q
b11 #t
b00000101 #V
1x
1]
1#a
#436
0a
0q
0h
0x
0]
0#a
