test_run_dir/CPU_should_provide_detailed_stack_and_execution_trace/LR35902_Core.vcd
$date
2025-12-08T15:23+0000
$end
$version
0.2
$end
$comment

$end
$timescale 1ns  $end
$scope module LR35902_Core $end
 $var wire 1 ! u_done $end
 $var wire 8 " E_sampled $end
 $var wire 8 $ A $end
 $var wire 8 % B $end
 $var wire 8 & C $end
 $var wire 8 ' D $end
 $var wire 8 ( E $end
 $var wire 8 ) F $end
 $var wire 8 * H $end
 $var wire 8 + L $end
 $var wire 5 , u_cc $end
 $var wire 3 - u_out_F_hi_1 $end
 $var wire 3 . u_out_F_hi_6 $end
 $var wire 3 / u_out_F_hi_7 $end
 $var wire 3 0 u_out_F_hi_8 $end
 $var wire 3 1 u_out_F_hi_9 $end
 $var wire 3 2 u_out_F_hi_2 $end
 $var wire 3 3 u_out_F_hi_3 $end
 $var wire 3 4 u_out_F_hi_4 $end
 $var wire 3 5 u_out_F_hi_5 $end
 $var wire 1 6 u_alu $end
 $var wire 16 7 busAddr $end
 $var wire 8 8 io_memWriteData $end
 $var wire 16 9 SP_sampled $end
 $var wire 1 : needsImm8_new $end
 $var wire 16 ; u_hl $end
 $var wire 1 = u_condition_1 $end
 $var wire 1 > u_condition_2 $end
 $var wire 1 ? u_condition_3 $end
 $var wire 16 @ io_memAddr $end
 $var wire 8 A B_sampled $end
 $var wire 8 B imm8 $end
 $var wire 8 C H_sampled $end
 $var wire 3 D state $end
 $var wire 16 E u_imm16 $end
 $var wire 16 F u_newHL_1 $end
 $var wire 16 G u_sp2_1 $end
 $var wire 16 I u_newHL_2 $end
 $var wire 16 J u_newHL_3 $end
 $var wire 16 K u_sp2_3 $end
 $var wire 16 L u_sp2_2 $end
 $var wire 8 M u_vec $end
 $var wire 1 N busRead $end
 $var wire 4 O u_rr $end
 $var wire 1 P needsImm16_new $end
 $var wire 8 Q u_A $end
 $var wire 8 R u_C $end
 $var wire 8 S u_B $end
 $var wire 8 T u_E $end
 $var wire 8 U u_D $end
 $var wire 8 V u_F $end
 $var wire 8 W u_H $end
 $var wire 1 X u_flagZ $end
 $var wire 8 Y u_L $end
 $var wire 1 Z u_flagC_1 $end
 $var wire 2 [ u_out_F_hi_hi $end
 $var wire 1 \ u_flagC $end
 $var wire 8 ] u_oldVal_1 $end
 $var wire 1 ^ busWrite $end
 $var wire 1 _ u_halfCarry $end
 $var wire 1 ` isLDrImm_new $end
 $var wire 1 a u_flagC_2 $end
 $var wire 1 b u_flagC_3 $end
 $var wire 16 c u_result_2 $end
 $var wire 16 d u_result_1 $end
 $var wire 3 e u_out_F_hi_18 $end
 $var wire 3 f u_out_F_hi_17 $end
 $var wire 1 g u_carry $end
 $var wire 3 h u_out_F_hi_14 $end
 $var wire 3 i u_out_F_hi_13 $end
 $var wire 3 j u_out_F_hi_16 $end
 $var wire 3 k u_out_F_hi_15 $end
 $var wire 3 l u_out_F_hi_10 $end
 $var wire 3 m u_out_F_hi_12 $end
 $var wire 3 n u_out_F_hi_11 $end
 $var wire 8 o u_oldVal $end
 $var wire 5 p u_dst $end
 $var wire 16 q u_result $end
 $var wire 5 r u_cc_1 $end
 $var wire 5 s u_cc_2 $end
 $var wire 5 t u_cc_3 $end
 $var wire 8 u io_dbg_mcycle $end
 $var wire 9 v u_off_1 $end
 $var wire 8 w A_sampled $end
 $var wire 1 x io_memWrite $end
 $var wire 16 } u_sp1_2 $end
 $var wire 16 ~ u_sp1_1 $end
 $var wire 16 "! u_sp1_3 $end
 $var wire 8 "" io_dbg_h $end
 $var wire 8 "# io_dbg_l $end
 $var wire 8 "$ io_dbg_a $end
 $var wire 8 "% io_dbg_b $end
 $var wire 8 "& u_imm8 $end
 $var wire 8 "' io_dbg_e $end
 $var wire 8 "( io_dbg_f $end
 $var wire 8 ") io_dbg_c $end
 $var wire 8 "* io_dbg_d $end
 $var wire 2 "+ u_out_F_hi_hi_17 $end
 $var wire 2 ", u_out_F_hi_hi_18 $end
 $var wire 2 "- u_out_F_hi_hi_15 $end
 $var wire 2 ". u_out_F_hi_hi_16 $end
 $var wire 2 "/ u_out_F_hi_hi_10 $end
 $var wire 2 "0 u_out_F_hi_hi_13 $end
 $var wire 2 "1 u_out_F_hi_hi_14 $end
 $var wire 2 "2 u_out_F_hi_hi_11 $end
 $var wire 2 "3 u_out_F_hi_hi_12 $end
 $var wire 8 "5 io_dbg_state $end
 $var wire 16 "6 mcBus_memAddr $end
 $var wire 16 "9 u_regPair $end
 $var wire 8 ": F_sampled $end
 $var wire 16 "; io_dbg_sp $end
 $var wire 16 "< u_newHL $end
 $var wire 16 "> io_dbg_pc $end
 $var wire 5 "? u_out_F_lo_6 $end
 $var wire 5 "@ u_out_F_lo_7 $end
 $var wire 5 "A u_out_F_lo_4 $end
 $var wire 5 "B u_out_F_lo_5 $end
 $var wire 5 "C u_out_F_lo_2 $end
 $var wire 5 "D u_out_F_lo_3 $end
 $var wire 5 "E u_out_F_lo_1 $end
 $var wire 5 "F u_out_F_lo_8 $end
 $var wire 5 "G u_out_F_lo_9 $end
 $var wire 8 "I io_memReadData $end
 $var wire 1 "J mcBus_memRead $end
 $var wire 1 "K mcBus_memWrite $end
 $var wire 8 "L IR $end
 $var wire 1 "M u_condition $end
 $var wire 1 "N clock $end
 $var wire 1 "O u_flagZ_1 $end
 $var wire 1 "P u_flagZ_2 $end
 $var wire 1 "Q u_flagZ_3 $end
 $var wire 2 "R u_out_F_hi_hi_8 $end
 $var wire 2 "S u_out_F_hi_hi_9 $end
 $var wire 2 "T u_out_F_hi_hi_6 $end
 $var wire 2 "U u_out_F_hi_hi_7 $end
 $var wire 2 "V u_out_F_hi_hi_4 $end
 $var wire 2 "W u_out_F_hi_hi_5 $end
 $var wire 16 "X PC $end
 $var wire 8 "Y io_ieReg $end
 $var wire 16 "Z imm16 $end
 $var wire 16 "[ SP $end
 $var wire 8 "\ C_sampled $end
 $var wire 8 "] busWriteData $end
 $var wire 8 "^ io_dbg_IR $end
 $var wire 8 "_ L_sampled $end
 $var wire 8 "a io_dbg_opcode $end
 $var wire 3 "b mcycle $end
 $var wire 1 "c reset $end
 $var wire 2 "d tcycle $end
 $var wire 16 "e u_sp2 $end
 $var wire 5 "f u_out_F_lo_10 $end
 $var wire 16 "g u_sp1 $end
 $var wire 5 "h u_out_F_lo_11 $end
 $var wire 9 "i u_off $end
 $var wire 5 "j u_out_F_lo_12 $end
 $var wire 5 "k u_out_F_lo_13 $end
 $var wire 5 "l u_out_F_lo_14 $end
 $var wire 5 "m u_out_F_lo_15 $end
 $var wire 5 "n u_out_F_lo_16 $end
 $var wire 5 "o u_out_F_lo_17 $end
 $var wire 5 "p u_out_F_lo_18 $end
 $var wire 3 "q u_out_F_hi $end
 $var wire 5 "r u_out_F_lo $end
 $var wire 8 "s io_dbg_tcycle $end
 $var wire 16 "t u_HL $end
 $var wire 16 "u PC_sampled $end
 $var wire 8 "v u_src $end
 $var wire 8 "w u_src_9 $end
 $var wire 8 "x u_src_8 $end
 $var wire 8 "y u_src_7 $end
 $var wire 8 "z u_src_6 $end
 $var wire 8 "{ u_src_5 $end
 $var wire 8 "| u_src_4 $end
 $var wire 8 "} u_src_3 $end
 $var wire 8 "~ u_src_2 $end
 $var wire 8 #! u_src_1 $end
 $var wire 16 #" u_PC $end
 $var wire 3 ## u_next_mcycle $end
 $var wire 1 #% io_memRead $end
 $var wire 2 #& u_out_F_hi_hi_2 $end
 $var wire 2 #' u_out_F_hi_hi_3 $end
 $var wire 2 #( u_out_F_hi_hi_1 $end
 $var wire 16 #) u_SP $end
 $var wire 4 #* u_rr_4 $end
 $var wire 4 #+ u_rr_3 $end
 $var wire 4 #, u_rr_2 $end
 $var wire 4 #- u_rr_1 $end
 $var wire 16 #. u_operand $end
 $var wire 8 #3 io_ifReg $end
 $var wire 5 #4 u_dst_1 $end
 $var wire 5 #5 u_dst_2 $end
 $var wire 5 #6 u_dst_3 $end
 $var wire 5 #7 u_dst_4 $end
 $var wire 8 #8 D_sampled $end
 $var wire 8 #9 mcBus_memWriteData $end
 $var wire 8 #: mcBus_memReadData $end
  $scope module u_alu $end
   $var wire 8 # r $end
   $var wire 4 < io_op $end
   $var wire 1 H io_carryIn $end
   $var wire 1 y io_flagZ $end
   $var wire 1 z io_flagN $end
   $var wire 1 { io_flagH $end
   $var wire 1 | io_flagC $end
   $var wire 8 "4 diffc $end
   $var wire 8 "7 io_b $end
   $var wire 8 "8 io_a $end
   $var wire 8 "= sum $end
   $var wire 8 "H diff $end
   $var wire 8 "` sumc $end
   $var wire 8 #$ io_out $end
   $var wire 8 #/ r_2 $end
   $var wire 8 #0 r_1 $end
   $var wire 8 #1 r_4 $end
   $var wire 8 #2 r_3 $end
  $upscope $end
$upscope $end
$enddefinitions $end
$dumpvars
06
0:
0=
0>
0?
b00000000 w
b0000000000000000 9
0H
b0000000000000000 7
b00000000 u
b00000000 o
b0000000000000000 ;
0N
0P
b00000000 M
0X
b00000000 C
b00000000 B
0Z
0\
b0000000000000000 "!
0^
b00000000 A
0_
0`
0a
0b
b00000000 ]
b00000000 W
b00000000 V
b00000000 Y
0g
b0000 <
b00000000 S
b00000000 R
b00000000 U
b00000000 T
b00000000 Q
b0000000000000000 "6
b0000000000000000 "9
b0000000000000000 ";
0x
b0000000000000000 "<
0y
0z
b0000000000000000 ">
0{
0|
b0000000000000000 #"
b0000000000000000 "X
b0000000000000000 "Z
b0000000000000000 "[
b0000000000000000 #)
b00 "d
b0000000000000000 #.
b00 "U
b00 "T
b00 "W
b00 "V
b00000 "A
b00000 "@
b00000 "C
b00000 "B
b00000000 "s
b00000 "E
b00000 "D
b00000 "G
b00000 "F
b00000000 "w
b00000000 "v
0#%
b00 #&
b00000000 "{
b00000000 "z
b00 #(
b00000000 "y
b00000 "?
b00 #'
b00000000 "x
0"J
0"K
b00000000 "~
b00 "S
b00000000 "}
b00 "R
0"M
b00000000 "|
0"N
0"O
0"P
0"Q
b000 f
b000 i
b000 h
b000 e
b000 n
b000 k
b000 j
b000 m
b000 l
0"c
b00 "+
b00 "1
b00 "0
b00 "3
b00 "2
b00 "-
b00 ",
b00 "/
b00 ".
b000 D
b000 3
b000 2
b000 5
b000 4
b00000 "p
b00000 "r
b00000 "h
b00000 "k
b00000 "j
b00000 "m
b00000 "l
b00 [
b00000 "o
b00000 "n
b000 /
b000 .
b000 1
b000 0
b000 -
b00000 "f
b00000 #4
b00000 #6
b00000 #5
b00000 #7
b000000000 "i
b00000000 "#
b00000000 ""
b00000000 "'
b00000000 "&
b00000000 "%
b00000000 "$
b00000000 "*
b00000000 ")
b00000000 "(
b00000000 "7
b00000000 "5
b00000000 "4
b00000000 ":
b00000000 "8
b00000000 "=
b00000000 #$
b00000000 #!
b00000000 "I
b00000000 "H
b000000000 v
b00000000 #0
b00000000 #/
b00000000 "L
b00000000 #3
b00000000 #2
b00000000 #1
b00000000 #8
b00000000 "Y
b00000000 #:
b00000000 #9
b00000000 "_
b00000000 "^
b00000000 "]
b00000000 "\
b00000000 "a
b00000000 "`
b0000000000000000 "t
b0000000000000000 "u
b0000000000000000 "e
b0000000000000000 "g
b000 "b
b00000 ,
b0000000000000000 ~
b000 "q
b00000000 +
b00000000 *
b00000000 '
b0000000000000000 d
b00000000 &
b0000000000000000 c
b00000000 )
b00000000 (
b00000000 #
b00000000 "
b00000000 %
b00000000 $
b0000000000000000 q
b0000 O
b00000000 8
b0000000000000000 }
b00000 p
b00000 s
b0000000000000000 @
b00000 r
b00000 t
b0000000000000000 E
b0000 #*
b0000 #,
b0000 #+
b0000000000000000 I
b0000 #-
b0000000000000000 G
b0000000000000000 F
b0000000000000000 L
b0000000000000000 K
b0000000000000000 J
0!
b000 ##
$end
#0
1"c
b1111111111111111 "e
b1111111111111111 "g
b100 -
b100 .
b100 /
b100 0
b100 1
b100 2
b100 3
b100 4
b100 5
1=
1>
1?
b1111111111111111 "!
b1111111111111111 F
b1111111111111111 G
b0000000000000001 I
b10 "+
b1111111111111111 J
b10 ",
b1111111111111111 K
b10 "-
b1111111111111111 L
b10 ".
b10 "/
1N
b10 "0
b10 "1
b10 "2
b10 "3
b0000000000000001 "<
1#%
b10 #&
b1111111111111111 d
b10 #'
b100 e
b10 #(
b100 f
b100 h
b100 i
b100 j
b100 k
1"M
b100 l
b100 m
b100 n
b11111111 #1
b00000001 #2
b10 "R
b0000000000000001 q
b10 "S
b10 "T
b10 "U
b10 "V
b10 "W
1y
b1111111111111111 }
b1111111111111111 ~
#1
b1111111111111101 "e
b1111111111111101 "g
b100 "q
b0000000101001101 "t
b0000000100000000 "u
b11011000 "
b00000001 $
b00010011 &
b11011000 (
b10110000 )
b00000001 *
b01001101 +
b0000000100000000 7
b1111111111111110 9
b0000000101001101 ;
0=
0>
0?
b1111111111111101 "!
b0000000100000000 @
b00000001 ""
b01001101 "#
b00000001 "$
b00000001 C
b11011000 "'
b0000000101001100 F
b10110000 "(
b1111111111111101 G
b00010011 ")
1H
b0000000101001110 I
b0000000101001100 J
b1111111111111101 K
b1111111111111101 L
b00000001 Q
b00010011 R
b11111111 "4
b11011000 T
b10110000 V
b00000001 W
b0000000000010011 "9
1X
b10110000 ":
b01001101 Y
b1111111111111110 ";
1Z
b0000000101001110 "<
b10 [
1\
b0000000100000000 ">
b10000 "A
b0000000100000000 #"
1a
b10000 "C
1b
b10000 "D
b0000000101100000 c
b10000 "E
b0000000000010010 d
b1111111111111110 #)
0"M
b0000000000010011 #.
1"N
1"O
1"P
1"Q
b0000000000010100 q
b0000000100000000 "X
b00000001 w
b1111111111111110 "[
b00010011 "\
b1111111111111101 }
b01001101 "_
b1111111111111101 ~
b00000001 "`
#6
1"c
0"N
#11
1"N
#16
0"N
#21
1"N
#26
0"N
#31
1"N
#36
0"N
#41
1"N
#46
0"N
#51
1"N
#56
1`
0"c
b00111110 "I
b00111110 #:
1:
0"N
#61
b00000001 "s
b01 "d
1"N
#66
0"N
#71
b00000010 "s
b10 "d
1"N
#76
0"N
#81
1!
b00000011 "s
b11 "d
1"N
#86
0"N
#91
b0000000100000001 @
b00 "d
b001 D
b00111000 M
b0011 O
b101 "q
b00000000 Q
b00000000 "s
b00000001 "5
b00000110 "v
b0000000110110000 "9
b0000000100000001 ">
b00000001 ]
b00000110 #!
1_
0!
b0000000101001011 c
b1111111111111101 d
b0011 #*
b0011 #+
b0011 #,
b00111110 "L
b0011 #-
1"M
b1111111111111110 #.
b00011 ,
1"N
b00000001 o
b00111 p
b1111111111111111 q
b00111 #4
b00011 r
b00111 #5
b00011 s
b00111 #6
b00011 t
b00111 #7
b0000000100000001 "X
b0000000100000001 7
b00111110 "^
1=
1>
1?
b00111110 "a
#96
0`
b00000101 "I
b00000101 #:
0:
0"N
#101
b00000001 "s
b01 "d
1"N
#106
0"N
#111
b00000010 "s
b10 "d
1"N
#116
0"N
#121
1!
b00000011 "s
b11 "d
1"N
#126
0"N
#131
b0000000000000000 @
0!
b00000101 B
0#%
b00 "d
b100 D
b00000101 "&
b000000101 "i
1"N
0N
b00000101 Q
b00000000 "s
b00000100 "5
b000000101 v
b0000000100000010 "X
b0000000000000000 7
b0000000100000010 ">
#136
0"N
#141
b00000001 "s
b01 "d
b0000000100000010 "u
1"N
b0000000100000010 #"
#146
0"N
#151
b00000010 "s
b10 "d
1"N
#156
0"N
#161
1!
b00000011 "s
b11 "d
1"N
#166
0"N
#171
b0000000100000010 @
0!
b00000101 "$
1#%
b00 "d
b00000101 $
b000 D
1"N
1N
b00000101 o
b00000000 "s
b00000000 "5
b0000000100000010 7
b00000101 w
b0000010110110000 "9
b00000101 ]
#176
1P
b11001101 "I
b11001101 #:
0"N
#181
b00000001 "s
b01 "d
1"N
#186
0"N
#191
b00000010 "s
b10 "d
1"N
#196
0"N
#201
1!
b00000011 "s
b11 "d
1"N
#206
0"N
#211
b00 "d
b100 "q
b00000000 "s
b00000101 "v
b01001101 "w
b01001101 "x
b01001101 "y
b01001101 "z
b01001101 "{
b01001101 "|
b01001101 "}
b01001101 "~
0!
b00001 ,
b0000000100000011 7
b0000000100000011 @
b010 D
b00001000 M
b0000 O
b00000010 "5
b1111111111111101 "6
b0000000000010011 "9
b0000000100000011 ">
b00010011 ]
b00000101 #!
0_
b0000000101100000 c
b0000000000010010 d
b0000 #*
b0000 #+
b0000 #,
1"K
b11001101 "L
b0000 #-
b0000000000010011 #.
1"N
b00010011 o
b00001 p
b0000000000010100 q
b00001 #4
b00001 r
b00001 #5
b00001 s
b00001 #6
b00001 t
b00001 #7
b00000001 #9
b0000000100000011 "X
b11001101 "^
b11001101 "a
#216
0P
b00100000 "I
b00100000 #:
1:
0"N
#221
b00000001 "s
b01 "d
1"N
#226
0"N
#231
b00000010 "s
b10 "d
b1111111111111101 #)
1"N
#236
0"N
#241
b001 ##
b00000011 "s
b11 "d
b1111111111111110 #)
1"N
#246
0"N
#251
b0000000100000100 @
b000 ##
b00 "d
b011 D
b0000000000100000 E
1"N
b00000000 "s
b00000011 "5
b0000000100000100 "X
b0000000100000100 7
b0000000000100000 "Z
b0000000100000100 ">
#256
1P
b00000001 "I
b00000001 #:
0:
0"N
#261
b00000001 "s
b01 "d
1"N
#266
0"N
#271
b00000010 "s
b10 "d
b1111111111111101 #)
1"N
#276
0"N
#281
b001 ##
b00000011 "s
b11 "d
b1111111111111110 #)
1"N
#286
0"N
#291
b1111111111111101 @
b000 ##
0#%
b00 "d
b100 D
b0000000100100000 E
1"N
0N
b00000000 "s
b00000100 "5
b0000000100000101 "X
b1111111111111101 7
b00000001 8
1x
b0000000100100000 "Z
b00000001 "]
b0000000100000101 ">
1^
#296
0"N
#301
b00000001 "s
b01 "d
b0000000100000101 "u
1"N
b0000000100000101 #"
#306
0"N
#311
b00000010 "s
b10 "d
b1111111111111101 #)
1"N
#316
0"N
#321
b001 ##
b00000011 "s
b11 "d
b1111111111111110 #)
1"N
#326
0"N
#331
b001 "b
b00000000 "s
b00 "d
b00000001 u
b00000101 #9
b00000101 8
b00000101 "]
1"N
#336
0"N
#341
b00000001 "s
b01 "d
1"N
#346
0"N
#351
b00000010 "s
b10 "d
b1111111111111101 #)
1"N
#356
0"N
#361
b010 ##
b00000011 "s
b11 "d
b1111111111111110 #)
1"N
#366
0"N
#371
b0000000000000000 @
b010 "b
b00 "d
0"K
1"N
b00000000 "s
b0000000000000000 "6
b00000010 u
b00000000 #9
b0000000000000000 7
b00000000 8
0x
b00000000 "]
0^
b0000000100100000 #"
#376
0"N
#381
b00000001 "s
b01 "d
1"N
#386
0"N
#391
b00000010 "s
b10 "d
1"N
#396
0"N
#401
1!
b00000011 "s
b11 "d
1"N
#406
0"N
#411
b0000000100100000 @
b000 ##
b000 "b
0!
1#%
b00 "d
b000 D
1"K
1"N
1N
b00000000 "s
b00000000 "5
b0000000100100000 "u
b1111111111111101 "6
b00000000 u
b00000001 #9
b0000000100100000 "X
b0000000100100000 7
b0000000100100000 ">
#416
0P
b00000000 "I
b00000000 #:
0"N
#421
b00000001 "s
b01 "d
1"N
#426
0"N
#431
b00000010 "s
b10 "d
b1111111111111101 #)
1"N
#436
0"N
#441
b001 ##
b00000011 "s
b11 "d
b1111111111111110 #)
1"N
#446
0"N
#451
b0000000000000000 @
b00 "d
b100 D
b00000000 M
0N
b00000000 "s
b00000100 "5
b0000000000000000 "6
b00000000 "v
b00000000 "w
b00000000 "x
b00000000 "y
b00000000 "z
b00000000 "{
b00000000 "|
b00000000 "}
b0000000100100001 ">
b00000000 "~
b00000000 ]
b00000000 #!
b000 ##
0#%
0"K
b00000000 "L
0"M
b00000 ,
1"N
b00000000 o
b00000 p
b00000 #4
b00000 r
b00000 #5
b00000 s
b00000 #6
b00000 t
b00000 #7
b00000000 #9
b0000000100100001 "X
b0000000000000000 7
b00000000 "^
0=
0>
0?
b00000000 "a
#456
0"N
#461
b00000001 "s
b01 "d
b0000000100100001 "u
1"N
b0000000100100001 #"
#466
0"N
#471
b00000010 "s
b10 "d
1"N
#476
0"N
#481
1!
b00000011 "s
b11 "d
1"N
#486
0"N
#491
b0000000100100001 @
0!
b00000000 "s
1#%
b00 "d
b00000000 "5
b000 D
b0000000100100001 7
1"N
1N
#496
0"N
#501
b00000001 "s
b01 "d
1"N
#506
0"N
#511
b00000010 "s
b10 "d
1"N
#516
0"N
#521
1!
b00000011 "s
b11 "d
1"N
#526
0"N
#531
b0000000000000000 @
0!
0#%
b00 "d
b100 D
1"N
0N
b00000000 "s
b00000100 "5
b0000000100100010 "X
b0000000000000000 7
b0000000100100010 ">
#536
0"N
#541
b00000001 "s
b01 "d
b0000000100100010 "u
1"N
b0000000100100010 #"
#546
0"N
#551
b00000010 "s
b10 "d
1"N
#556
0"N
#561
1!
b00000011 "s
b11 "d
1"N
#566
0"N
#571
b0000000100100010 @
0!
b00000000 "s
1#%
b00 "d
b00000000 "5
b000 D
b0000000100100010 7
1"N
1N
#576
0"N
#581
b00000001 "s
b01 "d
1"N
#586
0"N
#591
b00000010 "s
b10 "d
1"N
#596
0"N
#601
1!
b00000011 "s
b11 "d
1"N
#606
0"N
#611
b0000000000000000 @
0!
0#%
b00 "d
b100 D
1"N
0N
b00000000 "s
b00000100 "5
b0000000100100011 "X
b0000000000000000 7
b0000000100100011 ">
#616
0"N
#621
b00000001 "s
b01 "d
b0000000100100011 "u
1"N
b0000000100100011 #"
#626
0"N
#631
b00000010 "s
b10 "d
1"N
#636
0"N
#641
1!
b00000011 "s
b11 "d
1"N
#646
0"N
#651
b0000000100100011 @
0!
b00000000 "s
1#%
b00 "d
b00000000 "5
b000 D
b0000000100100011 7
1"N
1N
#656
0"N
#661
b00000001 "s
b01 "d
1"N
#666
0"N
#671
b00000010 "s
b10 "d
1"N
#676
0"N
#681
1!
b00000011 "s
b11 "d
1"N
#686
0"N
#691
b0000000000000000 @
0!
0#%
b00 "d
b100 D
1"N
0N
b00000000 "s
b00000100 "5
b0000000100100100 "X
b0000000000000000 7
b0000000100100100 ">
#696
0"N
#701
b00000001 "s
b01 "d
b0000000100100100 "u
1"N
b0000000100100100 #"
#706
0"N
#711
b00000010 "s
b10 "d
1"N
#716
0"N
#721
1!
b00000011 "s
b11 "d
1"N
#726
0"N
#731
b0000000100100100 @
0!
b00000000 "s
1#%
b00 "d
b00000000 "5
b000 D
b0000000100100100 7
1"N
1N
#736
0"N
#741
b00000001 "s
b01 "d
1"N
#746
0"N
#751
b00000010 "s
b10 "d
1"N
#756
0"N
#761
1!
b00000011 "s
b11 "d
1"N
#766
0"N
#771
b0000000000000000 @
0!
0#%
b00 "d
b100 D
1"N
0N
b00000000 "s
b00000100 "5
b0000000100100101 "X
b0000000000000000 7
b0000000100100101 ">
#776
0"N
#781
b00000001 "s
b01 "d
b0000000100100101 "u
1"N
b0000000100100101 #"
#786
0"N
#791
b00000010 "s
b10 "d
1"N
#796
0"N
#801
1!
b00000011 "s
b11 "d
1"N
#806
0"N
#811
b0000000100100101 @
0!
b00000000 "s
1#%
b00 "d
b00000000 "5
b000 D
b0000000100100101 7
1"N
1N
#816
0"N
#821
b00000001 "s
b01 "d
1"N
#826
0"N
#831
b00000010 "s
b10 "d
1"N
#836
0"N
#841
1!
b00000011 "s
b11 "d
1"N
#846
0"N
#851
b0000000000000000 @
0!
0#%
b00 "d
b100 D
1"N
0N
b00000000 "s
b00000100 "5
b0000000100100110 "X
b0000000000000000 7
b0000000100100110 ">
#856
0"N
#861
b00000001 "s
b01 "d
b0000000100100110 "u
1"N
b0000000100100110 #"
#866
0"N
#871
b00000010 "s
b10 "d
1"N
#876
0"N
#881
1!
b00000011 "s
b11 "d
1"N
#886
0"N
#891
b0000000100100110 @
0!
b00000000 "s
1#%
b00 "d
b00000000 "5
b000 D
b0000000100100110 7
1"N
1N
#896
0"N
#901
b00000001 "s
b01 "d
1"N
#906
0"N
#911
b00000010 "s
b10 "d
1"N
#916
0"N
#921
1!
b00000011 "s
b11 "d
1"N
#926
0"N
#931
b0000000000000000 @
0!
0#%
b00 "d
b100 D
1"N
0N
b00000000 "s
b00000100 "5
b0000000100100111 "X
b0000000000000000 7
b0000000100100111 ">
#936
0"N
#941
b00000001 "s
b01 "d
b0000000100100111 "u
1"N
b0000000100100111 #"
#946
0"N
#951
b00000010 "s
b10 "d
1"N
#956
0"N
#961
1!
b00000011 "s
b11 "d
1"N
#966
0"N
#971
b0000000100100111 @
0!
b00000000 "s
1#%
b00 "d
b00000000 "5
b000 D
b0000000100100111 7
1"N
1N
#976
0"N
#981
b00000001 "s
b01 "d
1"N
#986
0"N
#991
b00000010 "s
b10 "d
1"N
#996
0"N
#1001
1!
b00000011 "s
b11 "d
1"N
#1006
0"N
#1011
b0000000000000000 @
0!
0#%
b00 "d
b100 D
1"N
0N
b00000000 "s
b00000100 "5
b0000000100101000 "X
b0000000000000000 7
b0000000100101000 ">
#1016
0"N
#1021
b00000001 "s
b01 "d
b0000000100101000 "u
1"N
b0000000100101000 #"
#1026
0"N
#1031
b00000010 "s
b10 "d
1"N
#1036
0"N
#1041
1!
b00000011 "s
b11 "d
1"N
#1046
0"N
#1051
b0000000100101000 @
0!
b00000000 "s
1#%
b00 "d
b00000000 "5
b000 D
b0000000100101000 7
1"N
1N
#1056
0"N
#1061
b00000001 "s
b01 "d
1"N
#1066
0"N
#1071
b00000010 "s
b10 "d
1"N
#1076
0"N
#1081
1!
b00000011 "s
b11 "d
1"N
#1086
0"N
#1091
b0000000000000000 @
0!
0#%
b00 "d
b100 D
1"N
0N
b00000000 "s
b00000100 "5
b0000000100101001 "X
b0000000000000000 7
b0000000100101001 ">
#1096
0"N
#1101
b00000001 "s
b01 "d
b0000000100101001 "u
1"N
b0000000100101001 #"
#1106
0"N
#1111
b00000010 "s
b10 "d
1"N
#1116
0"N
#1121
1!
b00000011 "s
b11 "d
1"N
#1126
0"N
#1131
b0000000100101001 @
0!
b00000000 "s
1#%
b00 "d
b00000000 "5
b000 D
b0000000100101001 7
1"N
1N
#1136
b00111100 "I
b00111100 #:
0"N
#1141
b00000001 "s
b01 "d
1"N
#1146
0"N
#1151
b00000010 "s
b10 "d
1"N
#1156
0"N
#1161
1!
b00000011 "s
b11 "d
1"N
#1166
0"N
#1171
0!
b00011 ,
b000 -
b000 .
b000 /
b000 0
b000 1
b000 2
b000 3
b000 4
b000 5
b0000000000000000 7
b1000 <
1=
1>
1?
b0000000000000000 @
b100 D
b00 "+
b00 ",
b00 "-
b00 ".
b00111000 M
b00 "/
0N
b00 "0
b0011 O
b00 "1
b00 "2
b00000110 Q
b00 "3
b00000100 "4
b00000100 "5
b00010000 V
b00000101 "8
b0000010110110000 "9
b00000101 "=
b0000000100101010 ">
b00000101 ]
b00000100 #!
1_
b00000110 #$
0#%
b0000000101001011 c
b00 #&
b1111111111111101 d
b00 #'
b000 e
b00 #(
b000 f
b00000101 "H
b0011 #*
b000 h
b0011 #+
b000 i
b0011 #,
b000 j
b00111100 "L
b0011 #-
b000 k
1"M
b1111111111111110 #.
b000 l
1"N
b00000101 #/
b000 m
b00000101 #0
b000 n
b00000100 #1
b00000101 o
b00000110 #2
b00111 p
b00 "R
b1111111111111111 q
b00111 #4
b00 "S
b00011 r
b00111 #5
b00 "T
b00011 s
b00111 #6
b00 "U
b00011 t
b00111 #7
b00 "V
b00 "W
b0000000100101010 "X
0y
b00111100 "^
b00000110 "`
b00111100 "a
b00 "d
b101 "q
b00000000 "s
b00000100 "v
b00000001 "w
b00000001 "x
b00000001 "y
b00000001 "z
b00000001 "{
b00000001 "|
b00000001 "}
b00000001 "~
#1176
0"N
#1181
b00000001 "s
b01 "d
b0000000100101010 "u
1"N
b0000000100101010 #"
#1186
0"N
#1191
b00000010 "s
b10 "d
1"N
#1196
0"N
#1201
1!
b00000011 "s
b11 "d
1"N
#1206
0"N
#1211
b0000000100101010 @
b00000110 "$
b00 "d
b000 D
b00010000 "(
1N
b001 "q
b00000111 Q
b00000000 "s
b00000101 "4
b00000000 "5
b00000110 "8
b0000011000010000 "9
0X
b00010000 ":
b00 [
b00000110 "=
b00000110 ]
0!
b00000111 #$
1#%
b00000110 $
b00000110 "H
b00010000 )
1"N
b00000110 #/
0"O
b00000110 #0
0"P
b00000101 #1
b00000110 o
0"Q
b00000111 #2
b0000000100101010 7
b00000110 w
b00000111 "`
#1216
b11001001 "I
b11001001 #:
0"N
#1221
b00000001 "s
b01 "d
1"N
#1226
0"N
#1231
b00000010 "s
b10 "d
1"N
#1236
0"N
#1241
1!
b00000011 "s
b11 "d
1"N
#1246
0"N
