test_run_dir/GameBoySoC_should_execute_comprehensive_instruction_test/GameBoySoC.vcd
$date
2025-12-07T13:23+0000
$end
$version
0.2
$end
$comment

$end
$timescale 1ns  $end
$scope module GameBoySoC $end
 $var wire 1 2 cpu $end
 $var wire 1 J memory $end
 $var wire 8 g io_dbg_mcycle $end
 $var wire 8 "" io_dbg_state $end
 $var wire 8 #e io_dbg_h $end
 $var wire 8 #f io_dbg_l $end
 $var wire 8 #g io_dbg_a $end
 $var wire 8 #h io_dbg_b $end
 $var wire 8 #i io_dbg_e $end
 $var wire 8 #j io_dbg_f $end
 $var wire 8 #k io_dbg_c $end
 $var wire 8 #l io_dbg_d $end
 $var wire 16 #v io_dbg_pc $end
 $var wire 1 $5 clock $end
 $var wire 8 $E io_dbg_IR $end
 $var wire 8 $F io_dbg_opcode $end
 $var wire 1 $H reset $end
 $var wire 8 $Z io_dbg_tcycle $end
  $scope module memory $end
   $var wire 8 & rom $end
   $var wire 16 ( addr $end
   $var wire 8 ) vram $end
   $var wire 1 1 io_ppuOamRead $end
   $var wire 1 4 io_cpuWrite $end
   $var wire 8 5 rdata $end
   $var wire 8 = hram $end
   $var wire 8 ^ io_ioReadData $end
   $var wire 8 _ io_cpuWriteData $end
   $var wire 1 ` ramEnabled $end
   $var wire 1 a wram_rdata_MPORT_5_en_pipe_0 $end
   $var wire 13 i wram_rdata_MPORT_5_addr_pipe_0 $end
   $var wire 1 n vram_io_ppuVramData_MPORT_en_pipe_0 $end
   $var wire 8 t oam_io_ppuOamData_MPORT_addr_pipe_0 $end
   $var wire 16 "$ addr_11 $end
   $var wire 16 "% addr_10 $end
   $var wire 8 "* io_ppuOamAddr $end
   $var wire 13 "5 io_ppuVramAddr $end
   $var wire 1 "D clock $end
   $var wire 1 "g reset $end
   $var wire 16 "v ioAddr $end
   $var wire 13 "~ vram_rdata_MPORT_2_addr_pipe_0 $end
   $var wire 1 #% io_ppuVramRead $end
   $var wire 16 #/ addr_5 $end
   $var wire 16 #0 addr_6 $end
   $var wire 16 #1 addr_7 $end
   $var wire 16 #2 addr_8 $end
   $var wire 16 #3 addr_1 $end
   $var wire 16 #4 addr_2 $end
   $var wire 16 #5 addr_3 $end
   $var wire 16 #6 addr_4 $end
   $var wire 16 #7 addr_9 $end
   $var wire 16 #9 io_cpuAddress $end
   $var wire 16 #< ioAddr_1 $end
   $var wire 1 #M oam_rdata_MPORT_6_en_pipe_0 $end
   $var wire 8 #N oam_rdata_MPORT_6_addr_pipe_0 $end
   $var wire 1 #W vram_rdata_MPORT_2_en_pipe_0 $end
   $var wire 8 #^ wram $end
   $var wire 1 #a oam_io_ppuOamData_MPORT_en_pipe_0 $end
   $var wire 1 #b io_cpuRead $end
   $var wire 13 #c wram_rdata_MPORT_4_addr_pipe_0 $end
   $var wire 8 #o io_cpuReadData $end
   $var wire 13 #q extRam_rdata_MPORT_3_addr_pipe_0 $end
   $var wire 8 #s extRam $end
   $var wire 8 $" regIF $end
   $var wire 8 $# regIE $end
   $var wire 1 $A extRam_rdata_MPORT_3_en_pipe_0 $end
   $var wire 8 $P oam $end
   $var wire 13 $S vram_io_ppuVramData_MPORT_addr_pipe_0 $end
   $var wire 1 $` wram_rdata_MPORT_4_en_pipe_0 $end
    $scope module vram $end
     $var wire 8 $I MPORT $end
      $scope module MPORT $end
       $var wire 1 ! valid $end
       $var wire 1 - pipeline_valid_0 $end
       $var wire 8 h data $end
       $var wire 13 "@ addr $end
       $var wire 1 #! clk $end
       $var wire 13 #8 pipeline_addr_0 $end
       $var wire 1 $@ en $end
       $var wire 8 $O pipeline_data_0 $end
       $var wire 1 $w mask $end
      $upscope $end
      $scope module rdata_MPORT_2 $end
       $var wire 1 "F en $end
       $var wire 1 "i clk $end
       $var wire 13 #P addr $end
       $var wire 8 $h data $end
      $upscope $end
      $scope module io_ppuVramData_MPORT $end
       $var wire 8 "l data $end
       $var wire 1 "n clk $end
       $var wire 1 #' en $end
       $var wire 13 $$ addr $end
      $upscope $end
    $upscope $end
    $scope module rom $end
      $scope module rdata_MPORT $end
       $var wire 15 # addr $end
       $var wire 1 "- clk $end
       $var wire 1 "a en $end
       $var wire 8 $T data $end
      $upscope $end
      $scope module rdata_MPORT_1 $end
       $var wire 1 , en $end
       $var wire 1 "Q clk $end
       $var wire 15 "f addr $end
       $var wire 8 $i data $end
      $upscope $end
    $upscope $end
    $scope module hram $end
     $var wire 8 m MPORT_5 $end
      $scope module rdata_MPORT_7 $end
       $var wire 1 % en $end
       $var wire 8 M data $end
       $var wire 1 ". clk $end
       $var wire 7 $e addr $end
      $upscope $end
      $scope module MPORT_5 $end
       $var wire 1 "7 pipeline_valid_0 $end
       $var wire 8 "e pipeline_data_0 $end
       $var wire 1 "r en $end
       $var wire 7 "u addr $end
       $var wire 7 #: pipeline_addr_0 $end
       $var wire 1 #C mask $end
       $var wire 8 #z data $end
       $var wire 1 $^ clk $end
       $var wire 1 $_ valid $end
      $upscope $end
    $upscope $end
    $scope module wram $end
     $var wire 8 "H MPORT_3 $end
     $var wire 8 "I MPORT_2 $end
      $scope module MPORT_2 $end
       $var wire 8 ' pipeline_data_0 $end
       $var wire 1 "G valid $end
       $var wire 1 "k clk $end
       $var wire 8 #, data $end
       $var wire 1 #Q en $end
       $var wire 1 #p mask $end
       $var wire 1 #t pipeline_valid_0 $end
       $var wire 13 $L pipeline_addr_0 $end
       $var wire 13 $M addr $end
      $upscope $end
      $scope module MPORT_3 $end
       $var wire 13 0 addr $end
       $var wire 1 \ valid $end
       $var wire 1 ", en $end
       $var wire 13 "4 pipeline_addr_0 $end
       $var wire 1 "j pipeline_valid_0 $end
       $var wire 8 #\ pipeline_data_0 $end
       $var wire 8 #d data $end
       $var wire 1 #u clk $end
       $var wire 1 $b mask $end
      $upscope $end
      $scope module rdata_MPORT_5 $end
       $var wire 1 { clk $end
       $var wire 8 "E data $end
       $var wire 1 "o en $end
       $var wire 13 $[ addr $end
      $upscope $end
      $scope module rdata_MPORT_4 $end
       $var wire 8 "+ data $end
       $var wire 1 #; clk $end
       $var wire 1 #| en $end
       $var wire 13 $K addr $end
      $upscope $end
    $upscope $end
    $scope module oam $end
     $var wire 8 "! MPORT_4 $end
      $scope module rdata_MPORT_6 $end
       $var wire 1 * en $end
       $var wire 8 "m addr $end
       $var wire 8 #{ data $end
       $var wire 1 $d clk $end
      $upscope $end
      $scope module MPORT_4 $end
       $var wire 1 3 en $end
       $var wire 1 j pipeline_valid_0 $end
       $var wire 1 "0 valid $end
       $var wire 1 "^ mask $end
       $var wire 1 #* clk $end
       $var wire 8 #+ pipeline_addr_0 $end
       $var wire 8 #S data $end
       $var wire 8 $] pipeline_data_0 $end
       $var wire 8 $s addr $end
      $upscope $end
      $scope module io_ppuOamData_MPORT $end
       $var wire 1 [ clk $end
       $var wire 8 "x data $end
       $var wire 1 #X en $end
       $var wire 8 $/ addr $end
      $upscope $end
    $upscope $end
    $scope module extRam $end
     $var wire 8 + MPORT_1 $end
      $scope module MPORT_1 $end
       $var wire 1 y mask $end
       $var wire 1 "p pipeline_valid_0 $end
       $var wire 13 "t pipeline_addr_0 $end
       $var wire 8 #$ data $end
       $var wire 1 #) en $end
       $var wire 1 #[ clk $end
       $var wire 8 $% pipeline_data_0 $end
       $var wire 13 $3 addr $end
       $var wire 1 $f valid $end
      $upscope $end
      $scope module rdata_MPORT_3 $end
       $var wire 1 "' en $end
       $var wire 1 "A clk $end
       $var wire 13 "h addr $end
       $var wire 8 $( data $end
      $upscope $end
    $upscope $end
  $upscope $end
  $scope module cpu.u_alu $end
  $upscope $end
  $scope module cpu $end
   $var wire 1 " needsImm8 $end
   $var wire 8 $ busWriteData $end
   $var wire 8 . io_dbg_IR $end
   $var wire 9 / u_off $end
   $var wire 5 6 u_out_F_lo_13 $end
   $var wire 5 7 u_out_F_lo_14 $end
   $var wire 5 8 u_out_F_lo_15 $end
   $var wire 5 9 u_out_F_lo_16 $end
   $var wire 5 : u_out_F_lo_10 $end
   $var wire 5 ; u_out_F_lo_11 $end
   $var wire 5 < u_out_F_lo_12 $end
   $var wire 2 > u_out_F_hi_hi_18 $end
   $var wire 5 ? u_out_F_lo_17 $end
   $var wire 2 @ u_out_F_hi_hi_17 $end
   $var wire 5 A u_out_F_lo_18 $end
   $var wire 2 B u_out_F_hi_hi_14 $end
   $var wire 2 C u_out_F_hi_hi_13 $end
   $var wire 2 D u_out_F_hi_hi_16 $end
   $var wire 2 E u_out_F_hi_hi_15 $end
   $var wire 2 F u_out_F_hi_hi_10 $end
   $var wire 2 G u_out_F_hi_hi_12 $end
   $var wire 2 H u_out_F_hi_hi_11 $end
   $var wire 5 N u_dst_2 $end
   $var wire 5 O u_dst_3 $end
   $var wire 5 P u_dst_4 $end
   $var wire 5 R u_dst_1 $end
   $var wire 8 S u_L $end
   $var wire 8 T u_H $end
   $var wire 8 U u_F $end
   $var wire 8 V u_E $end
   $var wire 8 W u_D $end
   $var wire 8 X u_C $end
   $var wire 8 Y u_B $end
   $var wire 8 Z u_A $end
   $var wire 1 ] u_condition $end
   $var wire 4 b u_rr_3 $end
   $var wire 4 c u_rr_4 $end
   $var wire 4 d u_rr_1 $end
   $var wire 4 e u_rr_2 $end
   $var wire 1 f busWrite $end
   $var wire 1 k busRead $end
   $var wire 1 l mcBus_memRead $end
   $var wire 16 o u_sp1_3 $end
   $var wire 16 p u_PC $end
   $var wire 16 q u_sp1_2 $end
   $var wire 16 r u_sp1_1 $end
   $var wire 16 s u_SP $end
   $var wire 1 u u_condition_1 $end
   $var wire 1 v u_condition_2 $end
   $var wire 1 w u_condition_3 $end
   $var wire 1 x clock $end
   $var wire 16 z u_imm16 $end
   $var wire 16 | u_HL $end
   $var wire 1 } reset $end
   $var wire 16 ~ io_dbg_pc $end
   $var wire 16 "# mcBus_memAddr $end
   $var wire 16 "& u_result_1 $end
   $var wire 16 "( u_result_2 $end
   $var wire 8 "/ io_dbg_l $end
   $var wire 1 "1 u_flagC_1 $end
   $var wire 1 "2 u_flagC_2 $end
   $var wire 1 "3 u_flagC_3 $end
   $var wire 5 "6 u_dst $end
   $var wire 16 "8 busAddr $end
   $var wire 8 "9 io_dbg_a $end
   $var wire 8 ": io_dbg_b $end
   $var wire 8 "; io_dbg_c $end
   $var wire 8 "< io_dbg_d $end
   $var wire 8 "= io_dbg_e $end
   $var wire 8 "> io_dbg_f $end
   $var wire 8 "? io_dbg_h $end
   $var wire 1 "C u_halfCarry $end
   $var wire 3 "J u_out_F_hi_8 $end
   $var wire 3 "K u_out_F_hi_9 $end
   $var wire 1 "L u_done $end
   $var wire 3 "M u_out_F_hi_4 $end
   $var wire 3 "N u_out_F_hi_5 $end
   $var wire 3 "O u_out_F_hi_6 $end
   $var wire 3 "P u_out_F_hi_7 $end
   $var wire 3 "R u_out_F_hi_1 $end
   $var wire 3 "S u_out_F_hi_2 $end
   $var wire 1 "T io_memRead $end
   $var wire 3 "U u_out_F_hi_3 $end
   $var wire 2 "V tcycle $end
   $var wire 3 "W u_out_F_hi_16 $end
   $var wire 3 "X u_out_F_hi_15 $end
   $var wire 3 "Y u_out_F_hi_18 $end
   $var wire 3 "Z u_out_F_hi_17 $end
   $var wire 3 "[ u_out_F_hi_10 $end
   $var wire 3 "\ u_out_F_hi_12 $end
   $var wire 3 "] u_out_F_hi_11 $end
   $var wire 3 "_ u_out_F_hi_14 $end
   $var wire 3 "` u_out_F_hi_13 $end
   $var wire 16 "b u_newHL_3 $end
   $var wire 16 "c u_newHL_1 $end
   $var wire 16 "d u_newHL_2 $end
   $var wire 8 "q u_imm8 $end
   $var wire 8 "s io_dbg_state $end
   $var wire 9 "w u_off_1 $end
   $var wire 16 "y io_memAddr $end
   $var wire 5 "z u_cc_3 $end
   $var wire 5 "{ u_cc_2 $end
   $var wire 5 "| u_cc_1 $end
   $var wire 8 "} u_vec $end
   $var wire 8 #" u_oldVal $end
   $var wire 8 #& io_memWriteData $end
   $var wire 1 #( needsImm16 $end
   $var wire 8 #- mcBus_memReadData $end
   $var wire 8 #. u_src $end
   $var wire 1 #= u_flagZ_1 $end
   $var wire 1 #> u_flagZ_2 $end
   $var wire 1 #? u_flagZ_3 $end
   $var wire 16 #@ u_sp1 $end
   $var wire 16 #A u_sp2 $end
   $var wire 2 #D u_out_F_hi_hi $end
   $var wire 5 #E u_out_F_lo_8 $end
   $var wire 5 #F u_out_F_lo_9 $end
   $var wire 5 #G u_out_F_lo_6 $end
   $var wire 5 #H u_out_F_lo_7 $end
   $var wire 5 #I u_out_F_lo_4 $end
   $var wire 5 #J u_out_F_lo_5 $end
   $var wire 5 #K u_out_F_lo_2 $end
   $var wire 5 #L u_out_F_lo_3 $end
   $var wire 5 #O u_out_F_lo_1 $end
   $var wire 5 #R u_out_F_lo $end
   $var wire 3 #V u_out_F_hi $end
   $var wire 8 #Z u_oldVal_1 $end
   $var wire 1 #] mcBus_memWrite $end
   $var wire 16 #_ imm16 $end
   $var wire 8 #` io_dbg_opcode $end
   $var wire 8 #m io_dbg_mcycle $end
   $var wire 16 #n u_regPair $end
   $var wire 8 #r mcBus_memWriteData $end
   $var wire 8 #x io_memReadData $end
   $var wire 8 #} L $end
   $var wire 8 #~ H $end
   $var wire 8 $! F $end
   $var wire 1 $& u_flagZ $end
   $var wire 1 $' u_flagC $end
   $var wire 8 $* E $end
   $var wire 8 $+ D $end
   $var wire 8 $, C $end
   $var wire 8 $- B $end
   $var wire 8 $. A $end
   $var wire 8 $0 imm8 $end
   $var wire 16 $1 u_sp2_3 $end
   $var wire 16 $2 u_sp2_2 $end
   $var wire 16 $4 u_sp2_1 $end
   $var wire 4 $6 u_rr $end
   $var wire 8 $7 u_src_9 $end
   $var wire 8 $8 u_src_7 $end
   $var wire 8 $9 u_src_8 $end
   $var wire 8 $: u_src_5 $end
   $var wire 8 $; u_src_6 $end
   $var wire 8 $< u_src_3 $end
   $var wire 8 $= u_src_4 $end
   $var wire 8 $> u_src_1 $end
   $var wire 8 $? u_src_2 $end
   $var wire 16 $B u_hl $end
   $var wire 1 $C io_memWrite $end
   $var wire 3 $D mcycle $end
   $var wire 16 $G SP $end
   $var wire 5 $J u_cc $end
   $var wire 16 $N u_newHL $end
   $var wire 1 $Q u_alu $end
   $var wire 8 $R IR $end
   $var wire 16 $U PC $end
   $var wire 1 $\ u_carry $end
   $var wire 16 $a u_operand $end
   $var wire 1 $c isLDrImm $end
   $var wire 3 $g u_next_mcycle $end
   $var wire 2 $j u_out_F_hi_hi_7 $end
   $var wire 2 $k u_out_F_hi_hi_6 $end
   $var wire 2 $l u_out_F_hi_hi_9 $end
   $var wire 2 $m u_out_F_hi_hi_8 $end
   $var wire 2 $n u_out_F_hi_hi_3 $end
   $var wire 2 $o u_out_F_hi_hi_2 $end
   $var wire 2 $p u_out_F_hi_hi_5 $end
   $var wire 2 $q u_out_F_hi_hi_4 $end
   $var wire 2 $r u_out_F_hi_hi_1 $end
   $var wire 16 $t u_result $end
   $var wire 8 $u io_dbg_tcycle $end
   $var wire 3 $v state $end
    $scope module u_alu $end
     $var wire 1 I io_flagC $end
     $var wire 1 K io_flagH $end
     $var wire 1 L io_flagN $end
     $var wire 1 Q io_flagZ $end
     $var wire 8 ") sum $end
     $var wire 8 "B r $end
     $var wire 1 ## io_carryIn $end
     $var wire 8 #B io_out $end
     $var wire 8 #T io_a $end
     $var wire 8 #U io_b $end
     $var wire 8 #Y diff $end
     $var wire 8 #w sumc $end
     $var wire 8 #y diffc $end
     $var wire 4 $) io_op $end
     $var wire 8 $V r_2 $end
     $var wire 8 $W r_1 $end
     $var wire 8 $X r_4 $end
     $var wire 8 $Y r_3 $end
    $upscope $end
  $upscope $end
$upscope $end
$enddefinitions $end
$dumpvars
01
02
b0000 $)
b00000000 m
03
04
b00000000 g
b00000000 h
b0000000000000000 (
b00000000 _
b00000000 ^
b0000 $6
0I
0J
0K
b00000000 t
0L
0Q
b00000000 M
b0000000000000 i
0[
0\
0]
b0000000000000000 "#
b00 $k
0`
b00 $j
0a
b00000000 Z
b00 $m
b00 $l
b00000000 W
b00000000 V
0f
b00000000 Y
b00000000 X
b00000000 S
b00 $r
0j
b00000000 U
0k
b00000000 T
b00 $o
0l
b00 $n
b00 $q
0n
b00 $p
b0000000000000000 "8
0u
0v
0w
0x
b0000000 "u
0{
0}
b0000000000000000 "$
b0000000000000000 "%
b0000000000000000 "&
b0000000000000000 "(
b0000000000000000 #5
b0000000000000000 #6
b0000000000000000 #7
b0000000000000000 #9
b0000000 #:
b0000000000000000 #<
1y
b0000000000000000 #@
b0000000000000000 #A
b0000000000000 0
1"^
b0000000000000000 "b
b0000000000000000 "c
1#C
0"'
0",
b0000000000000000 #/
0"-
b0000000000000000 #0
0".
b0000000000000000 #1
b0000000000000000 #2
0"0
b0000000000000000 #3
0"1
b0000000000000000 #4
0"2
0"3
b00000000 $(
b00000000 "e
b00000000 $-
b0000000000000 $K
0"7
b00000000 $,
b0000000000000 $L
b00000000 $+
b00 "V
b0000000000000 $M
b00000000 $*
b00000000 $0
b00 #D
b00000000 "m
b00000000 #N
b00000000 $/
b00000000 "l
b00000000 $.
b00000000 "s
b00000000 #T
b00000000 #S
b0000000000000 #c
0#!
b00000000 "q
0"A
0##
b00000000 $9
0"C
b00000000 $8
b0000000000000 "~
0"D
0#%
b00000000 $7
b00000000 #U
0"F
0#'
b00000000 #\
b00000000 $=
0"G
0#(
b00000000 $<
0#)
b00000000 #Z
b00000000 $;
0#*
b00000000 "x
b00000000 #Y
b00000000 $:
b0000000000000 "t
b00000000 #`
0"L
b00000000 "}
b00000000 #^
b00000000 $?
b00000000 $>
b00000000 #d
b00000000 $E
b0000000000000 $3
1#p
0"Q
b00000 "6
b00000000 #h
b00000000 $I
b00000000 #g
0"T
b00000000 #f
b0000000000000 #P
b00000000 #e
b00000000 $F
b0000000000000 "h
b00000000 #l
b00000000 #k
b00000000 #j
b00000000 #i
0#;
b00000000 #o
b00000000 $P
0#=
b00000000 $O
0#>
b00000000 #m
0#?
b00000000 #s
b00000000 $T
b0000000000000 $$
b00000000 #r
0"a
1$b
b00000000 $R
b00000000 #x
b00000000 $Y
b00000000 #w
b00000000 $X
0$&
b00000000 $W
0$'
b00000000 $V
b00000000 $]
0"g
b00000000 #{
b00000000 #z
0"i
b00000000 #y
b00000000 $Z
0"j
0"k
0#M
b00000000 #~
b0000000000000 #8
b00000000 #}
0"n
0"o
0"p
0#Q
b0000000 $e
0"r
b00000000 $i
0$5
b00000000 $h
b00000 $J
0#W
1$w
0#X
0#[
0#]
b0000000000000 "@
0$@
b00000000 $u
0$A
0#a
b00000000 $s
0#b
0$C
b00000 "{
b00000 "z
0$H
b00000 "|
b0000000000000 "4
b00000 #R
b0000000000000 "5
0$Q
b00000 #J
0#t
b00000 #I
0#u
b00000 #L
b00000 #K
b00000 #O
0$\
0#|
0$^
0$_
0$`
b00000 #F
b00000 #E
b00000 #H
0$c
b00000 #G
0$d
b00 H
0$f
b00 G
b00 F
b00 @
b00 >
b00 E
b00 D
b00 C
b00 B
b000000000 "w
b000000000 /
b000000000000000 #
b00000000 ""
b00000000 "!
b00000000 "+
b00000000 "*
b00000000 ")
b00000000 "/
b000 $g
b00000000 ";
b00000000 ":
b00000000 "9
b00000000 "?
b00000000 ">
b00000000 "=
b00000000 "<
b00000000 #$
b00000000 "B
b00000000 #"
b000 $v
b00000000 "E
b00000000 #&
b00000000 #,
b00000000 #+
b00000000 "I
b00000000 "H
b00000000 #.
b00000000 #-
b0000000000000 $[
b00000000 $!
b0000000000000 #q
b00000000 $%
b0000000000000 $S
b00000000 #B
b00000000 $#
b00000000 $"
b000 "W
b0000000000000000 "v
b000 "U
b000 "R
b000 "S
b0000000000000000 "y
b000 "P
b000 "_
b000 "\
b0000000000000000 #_
b000 "]
b000 "Z
b0000000000000000 $B
b000 "[
b000 "X
b000 "Y
b0000000000000000 "d
b000 "`
b0000000000000000 $1
b0000000000000000 $2
b0000000000000000 $4
b0000000000000000 #v
b000 #V
b0000000000000000 ~
b00000 7
b00000 6
b00000 9
b00000 8
b00000 ;
b00000 :
b00000 <
b0000000000000000 $a
b00000 ?
b00000 A
b0000000000000000 $G
b000 $D
b000000000000000 "f
b0000000000000000 $N
b0000000000000000 #n
b00000 O
b00000 N
b00000 P
b0000000000000000 $U
b00000000 +
b00000 R
b00000000 '
b00000000 &
b00000000 )
b00000000 $
b0000000000000000 q
b0000000000000000 p
b0000000000000000 o
b00000000 =
b0000000000000000 s
b0000000000000000 r
b00000000 5
b0000000000000000 |
b00000000 .
b0000000000000000 $t
b0000000000000000 z
b0000 d
b0000 e
b0000 b
b0000 c
0!
0"
0%
b000 "N
b000 "O
0*
b000 "M
b000 "J
0,
b000 "K
0-
$end
#0
b1111111111111111 "b
b1111111111111111 "c
b0000000000000001 "d
1"g
b1111111111111111 $1
b1111111111111111 $2
b1111111111111111 $4
b0000000100000000 "v
1#b
1$H
b1000000000000000 (
b0000000000000001 $N
b11111111 $X
b00000001 $Y
b10 >
b10 @
b10 B
b0000000010000000 "$
b10 C
b0000001000000000 "%
b10 D
b1111111111111111 "&
b10 E
b10 F
b10 $j
b10 G
b10 $k
b10 H
b10 $l
b10 $m
b10 $n
b10 $o
b10 $p
b10 $q
b10 $r
b0000000000000001 $t
1Q
1]
b11111111 ^
b100 "J
b100 "K
1k
b100 "M
b0000000010000000 #/
b100 "N
b1000000000000000 #0
b100 "O
b0110000000000000 #1
b100 "P
b1111111111111111 o
b0100000000000000 #2
b0110000000000000 #3
b100 "R
b1111111111111111 q
b0100000000000000 #4
b100 "S
b1111111111111111 r
1"T
b0010000000000000 #5
b0000001000000000 #6
b100 "U
b0010000000000000 #7
1u
b100 "W
1v
b100 "X
1w
b100 "Y
b100 "Z
b0000000100000000 #<
b100 "[
b100 "\
b100 "]
1}
b1111111111111111 #@
b100 "_
b1111111111111111 #A
b100 "`
1"a
#1
1$d
1"D
1#*
1"i
1"k
1"-
1".
1"n
1"Q
1$5
1#u
1x
1#;
1#[
1$^
1[
1{
1#!
1"A
#6
0$d
0"D
0$H
0"g
0#*
0"i
0"k
0"-
0".
0"n
0"Q
0$5
0#u
0x
0#;
0#[
0$^
0[
0{
0}
0#!
0"A
#11
1$d
1"D
1#*
1"i
1"k
1"-
1".
1"n
1"Q
1$5
b00000001 $u
1#u
b01 "V
b00000001 $Z
1x
1#;
1#[
1$^
1[
1{
1#!
1"A
#16
0$d
0"D
0#*
0"i
0"k
0"-
0".
0"n
0"Q
0$5
0#u
0x
0#;
0#[
0$^
0[
0{
0#!
0"A
#21
1$d
1"D
1#*
1"i
1"k
1"-
1".
1"n
1"Q
1$5
b00000010 $u
1#u
b10 "V
b00000010 $Z
1x
1#;
1#[
1$^
1[
1{
1#!
1"A
#26
0$d
0"D
0#*
0"i
0"k
0"-
0".
0"n
0"Q
0$5
0#u
0x
0#;
0#[
0$^
0[
0{
0#!
0"A
#31
1$d
1"D
1#*
1"i
1"k
1"L
1"-
1".
1"n
1"Q
1$5
b00000011 $u
1#u
b11 "V
b00000011 $Z
1x
1#;
1#[
1$^
1[
1{
1#!
1"A
#36
0$d
0"D
0#*
0"i
0"k
0"-
0".
0"n
0"Q
0$5
0#u
0x
0#;
0#[
0$^
0[
0{
0#!
0"A
#41
b00000100 ""
1$d
1"i
1"k
1"-
1".
1"n
1$5
b00000100 "s
b00000000 $u
b100 $v
1#[
1[
1#!
1"A
0#b
1"D
1#*
0"L
0k
1"Q
b0000000000000001 p
b0000000000000001 $U
0"T
1#u
b0000000000000001 #v
b00 "V
b00000000 $Z
1x
1#;
1$^
1{
b0000000000000001 ~
0"a
#46
0$d
0"D
0#*
0"i
0"k
0"-
0".
0"n
0"Q
0$5
0#u
0x
0#;
0#[
0$^
0[
0{
0#!
0"A
#51
1$d
1"D
1#*
1"i
1"k
1"-
1".
1"n
1"Q
1$5
b00000001 $u
1#u
b01 "V
b00000001 $Z
1x
1#;
1#[
1$^
1[
1{
1#!
1"A
#56
0$d
0"D
0#*
0"i
0"k
0"-
0".
0"n
0"Q
0$5
0#u
0x
0#;
0#[
0$^
0[
0{
0#!
0"A
#61
1$d
1"D
1#*
1"i
1"k
1"-
1".
1"n
1"Q
1$5
b00000010 $u
1#u
b10 "V
b00000010 $Z
1x
1#;
1#[
1$^
1[
1{
1#!
1"A
#66
0$d
0"D
0#*
0"i
0"k
0"-
0".
0"n
0"Q
0$5
0#u
0x
0#;
0#[
0$^
0[
0{
0#!
0"A
#71
1$d
1"D
1#*
1"i
1"k
1"L
1"-
1".
1"n
1"Q
1$5
b00000011 $u
1#u
b11 "V
b00000011 $Z
1x
1#;
1#[
1$^
1[
1{
1#!
1"A
#76
0$d
0"D
0#*
0"i
0"k
0"-
0".
0"n
0"Q
0$5
0#u
0x
0#;
0#[
0$^
0[
0{
0#!
0"A
#81
b000000000000001 "f
1"i
1"k
1"n
b0000000000001 $3
1$5
b00000000 "s
b0000001 "u
b0000000100000001 "v
b0000000000000001 "y
1#[
1#b
b000000000000001 #
b1000000000000001 (
b0000000000001 $M
b00110001 #o
b0000000000001 0
b00110001 $T
1#u
b00110001 5
b00110001 #x
b00000000 $Z
1$^
b00000000 ""
1$d
b0000001 $e
b0000000010000001 "$
b0000001000000001 "%
b00110001 $i
1"-
1".
b00000001 $s
b00000000 $u
b000 $v
b0000000000000001 "8
1[
1#!
b0000000000001 "@
1"A
1"D
1#*
0"L
b00110001 #-
1k
b0000000010000001 #/
b1000000000000001 #0
b0110000000000001 #1
1"Q
b0100000000000001 #2
b0110000000000001 #3
b0100000000000001 #4
1"T
b0010000000000001 #5
b0000001000000001 #6
b00 "V
b0010000000000001 #7
b0000000000000001 #9
1x
1#;
b0000000100000001 #<
1{
1"a
#86
0$d
0"D
0#*
0"i
0"k
0"-
0".
0"n
0"Q
0$5
0#u
0x
0#;
0#[
0$^
0[
0{
0#!
0"A
#91
1$d
1"i
1"k
1"-
1".
1"n
1$5
b00000001 $u
b0000000000001 "4
b0000000000001 "t
1#[
1[
1#!
1"A
1"D
1#*
b00000001 #+
b0000000000001 $L
1"Q
1#u
b01 "V
b0000000000001 #8
b00000001 $Z
b0000001 #:
1x
1#;
1$^
1{
#96
0$d
0"D
0#*
0"i
0"k
0"-
0".
0"n
0"Q
0$5
0#u
0x
0#;
0#[
0$^
0[
0{
0#!
0"A
#101
1$d
1"D
1#*
1"i
1"k
1"-
1".
1"n
1"Q
1$5
b00000010 $u
1#u
b10 "V
b00000010 $Z
1x
1#;
1#[
1$^
1[
1{
1#!
1"A
#106
0$d
0"D
0#*
0"i
0"k
0"-
0".
0"n
0"Q
0$5
0#u
0x
0#;
0#[
0$^
0[
0{
0#!
0"A
#111
1$d
1"i
1"k
1"-
1".
1"n
b00110 N
b00110 O
b00110 P
1$5
b00000011 $u
b00110 R
b0011 $6
b00110 "6
1#[
b00010 "z
b00010 "{
b00000001 $>
b00010 "|
1[
b00110000 "}
b00110001 #`
1#!
1"A
b00110001 $E
b0011 b
1"D
b00110001 $F
b0011 c
b0011 d
b0011 e
1#(
b00010 $J
1#*
1"L
b00000001 #.
b00110001 .
b00110001 $R
1"Q
1#u
b11 "V
b00000011 $Z
1x
1#;
1$^
1{
#116
0$d
0"D
0#*
0"i
0"k
0"-
0".
0"n
0"Q
0$5
0#u
0x
0#;
0#[
0$^
0[
0{
0#!
0"A
#121
b000000000000010 "f
1"i
1"k
1"n
b0000000000010 $3
1$5
b00000010 "s
b0000010 "u
b0000000100000010 "v
b0000000000000010 "y
1#[
b000000000000010 #
b1000000000000010 (
b0000000000010 $M
b11111111 #o
b0000000000010 0
b11111111 $T
b0000000000000010 $U
1#u
b0000000000000010 #v
b11111111 5
b11111111 #x
b00000000 $Z
1$^
b00000010 ""
1$d
b0000010 $e
b0000000010000010 "$
b0000001000000010 "%
b11111111 $i
1"-
1".
b00000010 $s
b00000000 $u
b010 $v
b0000000000000010 "8
1[
1#!
b0000000000010 "@
1"A
1"D
1#*
0"L
b11111111 #-
b0000000010000010 #/
b1000000000000010 #0
b0110000000000010 #1
1"Q
b0100000000000010 #2
b0000000000000010 p
b0110000000000010 #3
b0100000000000010 #4
b0010000000000010 #5
b0000001000000010 #6
b00 "V
b0010000000000010 #7
b0000000000000010 #9
1x
1#;
b0000000100000010 #<
1{
b0000000000000010 ~
#126
0$d
0"D
0#*
0"i
0"k
0"-
0".
0"n
0"Q
0$5
0#u
0x
0#;
0#[
0$^
0[
0{
0#!
0"A
#131
1$d
1"i
1"k
1"-
1".
1"n
1$5
b00000001 $u
b0000000000010 "4
b0000000000010 "t
1#[
1[
1#!
1"A
1"D
1#*
b00000010 #+
b0000000000010 $L
1"Q
1#u
b01 "V
b0000000000010 #8
b00000001 $Z
b0000010 #:
1x
1#;
1$^
1{
#136
0$d
0"D
0#*
0"i
0"k
0"-
0".
0"n
0"Q
0$5
0#u
0x
0#;
0#[
0$^
0[
0{
0#!
0"A
#141
1$d
1"D
1#*
1"i
1"k
1"-
1".
1"n
1"Q
1$5
b00000010 $u
1#u
b10 "V
b00000010 $Z
1x
1#;
1#[
1$^
1[
1{
1#!
1"A
#146
0$d
0"D
0#*
0"i
0"k
0"-
0".
0"n
0"Q
0$5
0#u
0x
0#;
0#[
0$^
0[
0{
0#!
0"A
#151
1$d
1"i
1"k
1"-
1".
1"n
1$5
b00000011 $u
1#[
1[
b0000000011111111 #_
1#!
1"A
1"D
1#*
1"L
1"Q
1#u
b11 "V
b00000011 $Z
1x
1#;
b0000000011111111 z
1$^
1{
#156
0$d
0"D
0#*
0"i
0"k
0"-
0".
0"n
0"Q
0$5
0#u
0x
0#;
0#[
0$^
0[
0{
0#!
0"A
