test_run_dir/CALL_and_RET_instructions_should_execute_CALL_and_RET_correctly/LR35902_Core.vcd
$date
2025-12-16T04:01+0000
$end
$version
0.2
$end
$comment

$end
$timescale 1ns  $end
$scope module LR35902_Core $end
 $var wire 8 ! E_sampled $end
 $var wire 8 # A $end
 $var wire 8 $ B $end
 $var wire 8 % C $end
 $var wire 8 & D $end
 $var wire 8 ' E $end
 $var wire 8 ( F $end
 $var wire 8 ) H $end
 $var wire 8 * L $end
 $var wire 5 + u_cc $end
 $var wire 1 , u_alu $end
 $var wire 8 - u_correction $end
 $var wire 1 . u__done $end
 $var wire 16 / busAddr $end
 $var wire 1 0 u_cy $end
 $var wire 8 1 io_memWriteData $end
 $var wire 16 2 SP_sampled $end
 $var wire 16 3 u_sp_signed_1 $end
 $var wire 1 4 u_cy_1 $end
 $var wire 1 5 u_hc $end
 $var wire 16 6 u_hl $end
 $var wire 1 8 isLDrImm $end
 $var wire 8 9 imm8 $end
 $var wire 3 : state $end
 $var wire 16 ; u_newHL_1 $end
 $var wire 16 < u_sp2_1 $end
 $var wire 16 > u_newHL_2 $end
 $var wire 16 ? u_newHL_3 $end
 $var wire 16 @ u_sp2_3 $end
 $var wire 16 A u_sp2_2 $end
 $var wire 1 B cbOut_c_4 $end
 $var wire 1 C cbOut_c_5 $end
 $var wire 1 D cbOut_c_6 $end
 $var wire 1 E cbOut_c_1 $end
 $var wire 1 F cbOut_c_2 $end
 $var wire 1 G cbOut_c_3 $end
 $var wire 1 H busRead $end
 $var wire 4 I u_rr $end
 $var wire 1 J u_printf $end
 $var wire 1 K u_C $end
 $var wire 1 L u_H $end
 $var wire 1 M u_N $end
 $var wire 1 N u_flagC_1 $end
 $var wire 2 O u_out_F_hi_hi $end
 $var wire 8 P u_oldVal_1 $end
 $var wire 1 Q busWrite $end
 $var wire 1 R u_halfCarry $end
 $var wire 8 S u_upperCorrect_1 $end
 $var wire 1 T u_flagC_2 $end
 $var wire 1 U u_flagC_3 $end
 $var wire 3 V u_out_F_hi_18 $end
 $var wire 3 W u_out_F_hi_17 $end
 $var wire 3 X u_out_F_hi_19 $end
 $var wire 3 Y u_out_F_hi_14 $end
 $var wire 3 Z u_out_F_hi_13 $end
 $var wire 3 [ u_out_F_hi_16 $end
 $var wire 3 \ u_out_F_hi_15 $end
 $var wire 3 ] u_out_F_hi_10 $end
 $var wire 3 ^ u_out_F_hi_12 $end
 $var wire 3 _ u_out_F_hi_11 $end
 $var wire 3 ` u_out_F_hi_24 $end
 $var wire 3 a u_out_F_hi_21 $end
 $var wire 3 b u_out_F_hi_20 $end
 $var wire 3 c u_out_F_hi_23 $end
 $var wire 3 d u_out_F_hi_22 $end
 $var wire 8 e u_oldVal $end
 $var wire 16 f u_result $end
 $var wire 8 g io_dbg_mcycle $end
 $var wire 8 h u_off_1 $end
 $var wire 8 i cbOut_result $end
 $var wire 16 j nextPC $end
 $var wire 16 o u_sp1_2 $end
 $var wire 16 p u_sp1_1 $end
 $var wire 16 q u_sp1_3 $end
 $var wire 2 r u_out_F_hi_hi_20 $end
 $var wire 2 s u_out_F_hi_hi_21 $end
 $var wire 2 t u_out_F_hi_hi_24 $end
 $var wire 2 u u_out_F_hi_hi_22 $end
 $var wire 2 v u_out_F_hi_hi_23 $end
 $var wire 2 w u_out_F_hi_hi_17 $end
 $var wire 2 x u_out_F_hi_hi_18 $end
 $var wire 2 y u_out_F_hi_hi_15 $end
 $var wire 2 z u_out_F_hi_hi_16 $end
 $var wire 2 { u_out_F_hi_hi_19 $end
 $var wire 2 | u_out_F_hi_hi_10 $end
 $var wire 2 } u_out_F_hi_hi_13 $end
 $var wire 2 ~ u_out_F_hi_hi_14 $end
 $var wire 2 "! u_out_F_hi_hi_11 $end
 $var wire 2 "" u_out_F_hi_hi_12 $end
 $var wire 1 "# cbOut_c $end
 $var wire 1 "$ intr $end
 $var wire 8 "% cbOut_D $end
 $var wire 8 "& cbOut_E $end
 $var wire 8 "' cbOut_F $end
 $var wire 8 "( cbOut_A $end
 $var wire 8 ") cbOut_B $end
 $var wire 8 "* cbOut_C $end
 $var wire 8 "+ cbOut_L $end
 $var wire 8 ", cbOut_H $end
 $var wire 1 "- printf $end
 $var wire 8 ". io_dbg_state $end
 $var wire 16 "/ mcBus_memAddr $end
 $var wire 8 "0 u__imm8 $end
 $var wire 16 "1 u_offset_signed $end
 $var wire 8 "2 u_lowerCorrect $end
 $var wire 8 "5 F_sampled $end
 $var wire 1 "8 needsImm8 $end
 $var wire 8 "9 io_memReadData $end
 $var wire 1 ": mcBus_memRead $end
 $var wire 8 "; IR $end
 $var wire 1 "< u__IME_pending $end
 $var wire 1 "= u__IME $end
 $var wire 9 "> u_lower_sum $end
 $var wire 16 "? PC $end
 $var wire 16 "A imm16 $end
 $var wire 16 "B SP $end
 $var wire 3 "D mcycle $end
 $var wire 2 "E tcycle $end
 $var wire 3 "F u__next_mcycle $end
 $var wire 1 "I needsImm16 $end
 $var wire 5 "J u_out_F_lo_19 $end
 $var wire 16 "K u_sp2 $end
 $var wire 5 "L u_out_F_lo_10 $end
 $var wire 16 "M u_sp1 $end
 $var wire 5 "N u_out_F_lo_11 $end
 $var wire 5 "O u_out_F_lo_12 $end
 $var wire 5 "P u_out_F_lo_13 $end
 $var wire 5 "Q u_out_F_lo_14 $end
 $var wire 5 "R u_out_F_lo_15 $end
 $var wire 5 "S u_out_F_lo_16 $end
 $var wire 5 "T u_out_F_lo_17 $end
 $var wire 5 "U u_out_F_lo_18 $end
 $var wire 8 "V u_adjusted $end
 $var wire 1 "W u_newCarry $end
 $var wire 5 "X u_out_F_lo_20 $end
 $var wire 5 "Y u_out_F_lo_21 $end
 $var wire 5 "Z u_out_F_lo_22 $end
 $var wire 5 "[ u_out_F_lo_23 $end
 $var wire 5 "\ u_out_F_lo_24 $end
 $var wire 8 "] cbOut_imm8 $end
 $var wire 16 "^ PC_sampled $end
 $var wire 1 "_ cbOut_bitVal $end
 $var wire 8 "` cbOut_mask_1 $end
 $var wire 8 "a u_src $end
 $var wire 8 "b u_src_9 $end
 $var wire 8 "c u_src_8 $end
 $var wire 8 "d u_src_7 $end
 $var wire 8 "e u_src_6 $end
 $var wire 8 "f u_src_5 $end
 $var wire 8 "g u_src_4 $end
 $var wire 8 "h u_src_3 $end
 $var wire 8 "i u_src_2 $end
 $var wire 8 "j u_src_1 $end
 $var wire 16 "k newPC $end
 $var wire 1 "l io_memRead $end
 $var wire 4 "m u_rr_4 $end
 $var wire 4 "n u_rr_3 $end
 $var wire 4 "o u_rr_2 $end
 $var wire 4 "p u_rr_1 $end
 $var wire 16 "q u_operand $end
 $var wire 4 "v u_rr_5 $end
 $var wire 8 "w io_ifReg $end
 $var wire 1 "x cbOut_done $end
 $var wire 8 "y mcBus_memWriteData $end
 $var wire 1 "z cbOut_flagN $end
 $var wire 1 "{ cbOut_flagZ $end
 $var wire 1 "| cbOut_flagC $end
 $var wire 1 "} cbOut_flagH $end
 $var wire 16 #! u_HL_1 $end
 $var wire 3 #" u_out_F_hi_1 $end
 $var wire 3 ## u_out_F_hi_6 $end
 $var wire 3 #$ u_out_F_hi_7 $end
 $var wire 3 #% u_out_F_hi_8 $end
 $var wire 3 #& u_out_F_hi_9 $end
 $var wire 3 #' u_out_F_hi_2 $end
 $var wire 3 #( u_out_F_hi_3 $end
 $var wire 3 #) u_out_F_hi_4 $end
 $var wire 3 #* u_out_F_hi_5 $end
 $var wire 16 #+ cbOut_HL $end
 $var wire 1 #, u_condition_1 $end
 $var wire 1 #- u_condition_2 $end
 $var wire 1 #. u_condition_3 $end
 $var wire 16 #/ io_memAddr $end
 $var wire 8 #0 B_sampled $end
 $var wire 8 #1 H_sampled $end
 $var wire 8 #2 u_vec $end
 $var wire 1 #3 u_hc_1 $end
 $var wire 16 #4 u__imm16 $end
 $var wire 8 #5 u_lowerCorrect_1 $end
 $var wire 1 #6 u_flagZ $end
 $var wire 8 #7 cbOut_mask $end
 $var wire 1 #8 u_flagC $end
 $var wire 1 #9 IME_pending $end
 $var wire 16 #: newPC_1 $end
 $var wire 16 #; newPC_2 $end
 $var wire 16 #< u_result_2 $end
 $var wire 16 #= u_result_3 $end
 $var wire 16 #> u_result_1 $end
 $var wire 16 #? u_result_4 $end
 $var wire 1 #@ u_carry $end
 $var wire 9 #A u_lower_sum_1 $end
 $var wire 5 #B u_dst $end
 $var wire 5 #C u_cc_1 $end
 $var wire 5 #D u_cc_2 $end
 $var wire 5 #E u_cc_3 $end
 $var wire 3 #F cbOut_next_mcycle $end
 $var wire 8 #G A_sampled $end
 $var wire 1 #H io_memWrite $end
 $var wire 8 #I io_dbg_h $end
 $var wire 8 #J io_dbg_l $end
 $var wire 8 #K io_dbg_a $end
 $var wire 8 #L io_dbg_b $end
 $var wire 8 #M io_dbg_e $end
 $var wire 8 #N io_dbg_f $end
 $var wire 8 #O io_dbg_c $end
 $var wire 8 #P io_dbg_d $end
 $var wire 16 #R u_regPair $end
 $var wire 2 #S cbOut_group $end
 $var wire 1 #T canTakeInterrupt $end
 $var wire 1 #U halted $end
 $var wire 16 #V io_dbg_sp $end
 $var wire 16 #W u_newHL $end
 $var wire 16 #X io_dbg_pc $end
 $var wire 5 #Z u_out_F_lo_6 $end
 $var wire 5 #[ u_out_F_lo_7 $end
 $var wire 5 #\ u_out_F_lo_4 $end
 $var wire 5 #] u_out_F_lo_5 $end
 $var wire 5 #^ u_out_F_lo_2 $end
 $var wire 5 #_ u_out_F_lo_3 $end
 $var wire 5 #` u_out_F_lo_1 $end
 $var wire 5 #a u_out_F_lo_8 $end
 $var wire 5 #b u_out_F_lo_9 $end
 $var wire 1 #d mcBus_memWrite $end
 $var wire 1 #e u_condition $end
 $var wire 1 #f clock $end
 $var wire 1 #g u_flagZ_1 $end
 $var wire 1 #h u_flagZ_2 $end
 $var wire 1 #i u_flagZ_3 $end
 $var wire 2 #j u_out_F_hi_hi_8 $end
 $var wire 2 #k u_out_F_hi_hi_9 $end
 $var wire 2 #l u_out_F_hi_hi_6 $end
 $var wire 2 #m u_out_F_hi_hi_7 $end
 $var wire 2 #n u_out_F_hi_hi_4 $end
 $var wire 2 #o u_out_F_hi_hi_5 $end
 $var wire 16 #p u_offset_signed_1 $end
 $var wire 8 #q io_ieReg $end
 $var wire 8 #r C_sampled $end
 $var wire 8 #s busWriteData $end
 $var wire 16 #t u__SP $end
 $var wire 8 #u io_dbg_IR $end
 $var wire 8 #v L_sampled $end
 $var wire 8 #w io_dbg_opcode $end
 $var wire 8 #x CB_imm8 $end
 $var wire 1 #y reset $end
 $var wire 16 #z u_sp_signed $end
 $var wire 1 #| IME $end
 $var wire 8 #} IR2 $end
 $var wire 2 #~ cbOut_out_F_hi_hi $end
 $var wire 8 $! u_off $end
 $var wire 3 $" u_out_F_hi $end
 $var wire 3 $# cbOut_out_F_hi $end
 $var wire 5 $$ u_out_F_lo $end
 $var wire 8 $% io_dbg_tcycle $end
 $var wire 16 $& u_HL $end
 $var wire 16 $' u__PC $end
 $var wire 3 $( cbOut_bitIdx $end
 $var wire 8 $) cbOut_operand $end
 $var wire 2 $+ u_out_F_hi_hi_2 $end
 $var wire 2 $, u_out_F_hi_hi_3 $end
 $var wire 2 $- u_out_F_hi_hi_1 $end
 $var wire 8 $. u_upperCorrect $end
 $var wire 1 $/ cbOut_isHL $end
 $var wire 5 $0 u_dst_1 $end
 $var wire 5 $1 u_dst_2 $end
 $var wire 5 $2 u_dst_3 $end
 $var wire 5 $3 u_dst_4 $end
 $var wire 8 $6 D_sampled $end
 $var wire 5 $7 cbOut_out_F_lo $end
 $var wire 3 $8 cbOut_regIdx $end
 $var wire 8 $9 mcBus_memReadData $end
 $var wire 8 $; u__L $end
 $var wire 8 $< u__H $end
 $var wire 8 $= u__E $end
 $var wire 8 $> u__F $end
 $var wire 8 $? u__C $end
 $var wire 8 $@ u__D $end
 $var wire 8 $A u__A $end
 $var wire 8 $B u__B $end
  $scope module intr $end
   $var wire 1 "@ io_should_irq $end
   $var wire 1 "G anyActive $end
   $var wire 16 "H io_irq_vector $end
   $var wire 16 "~ vector $end
   $var wire 3 #Y io_irq_index $end
   $var wire 3 #c index $end
   $var wire 1 #{ io_IME $end
   $var wire 8 $4 io_IE $end
   $var wire 8 $5 io_IF $end
   $var wire 8 $: active $end
  $upscope $end
  $scope module u_alu $end
   $var wire 8 " r $end
   $var wire 4 7 io_op $end
   $var wire 1 = io_carryIn $end
   $var wire 1 k io_flagZ $end
   $var wire 1 l io_flagN $end
   $var wire 1 m io_flagH $end
   $var wire 1 n io_flagC $end
   $var wire 8 "3 io_b $end
   $var wire 8 "4 io_a $end
   $var wire 8 "6 sum $end
   $var wire 8 "7 diff $end
   $var wire 8 "C sumc $end
   $var wire 8 "r r_2 $end
   $var wire 8 "s r_1 $end
   $var wire 8 "t r_4 $end
   $var wire 8 "u r_3 $end
   $var wire 8 #Q diffc $end
   $var wire 8 $* io_out $end
  $upscope $end
$upscope $end
$enddefinitions $end
$dumpvars
00
04
b00000000 g
05
b00000000 i
b00000000 h
08
b0000 "m
b0000 "o
b00000000 e
b0000 "n
0=
b0000 "p
b0000000000000000 /
0B
0C
b0000 "v
0D
0E
b0000000000000000 3
0F
b0000000000000000 2
0G
0H
0J
b0000000000000000 6
0K
0L
b0000000000000000 <
0M
b0000000000000000 ;
0N
0Q
0R
0T
0U
b00000000 S
0k
0l
0m
0n
b0000 7
b00000000 P
b0000000000000000 "?
b00 #~
b0000000000000000 #!
b0000000000000000 "A
b0000000000000000 "B
b00 #j
b00 #l
b00 #k
b0000000000000000 "/
b00 #n
b00 #m
b0000000000000000 "1
b00 #o
b0000000000000000 #:
b0000000000000000 #;
b0000000000000000 #<
b0000000000000000 #=
b0000000000000000 #>
b0000000000000000 "^
b0000000000000000 #?
b00 $+
0"#
b00 $-
0"$
b00 $,
b0000000000000000 "H
b0000000000000000 #+
b0000000000000000 "K
b0000000000000000 "M
b0000000000000000 #/
b00 #S
0"-
b0000000000000000 #4
b00000000 "g
b00000000 $)
b00000000 "f
b00000000 #G
b00000000 "e
b00000000 "d
b00000 "J
b00000000 #L
b00000000 "j
b00000000 #K
b00000 "L
0"8
b00000000 "i
b00000000 #J
b00000 "O
b00000000 "h
b00000000 #I
b00000000 $*
b00000 "N
0":
b00000000 #P
b00000000 #O
0"<
b00000000 #N
0"=
b00000000 #M
b00000000 $.
b00000000 "s
b00000000 $5
b00000000 "r
b00000000 $4
0"@
b00000000 #Q
b00000000 "w
b00000000 $9
b00000000 "u
b00000000 "t
b00000000 $6
b00 "E
b00000000 $=
0"G
b00000000 $<
b00000000 "y
b00000000 $;
0"I
b00000000 $:
b00000000 $A
0#,
b00000000 $@
0#-
b00000000 $?
0#.
b00000000 $>
b00000000 $B
0#3
0#6
b000 c
b000 b
0"W
0#8
0#9
b000 d
0"_
0#@
b00000000 #s
b00000000 #r
b00000000 #q
b000 W
b00000000 #x
b000 V
b00000000 #w
b000 Y
b00000000 #v
b000 X
b00000000 #u
0#H
b000 _
b000 ^
b000 a
0"l
b000 `
0$/
b00 ~
b00000000 #}
b000 [
b000 Z
b000 ]
b000 \
b00 y
0#T
b00 x
0#U
b00 w
b00 v
b00 }
b00 |
0"x
b00 {
b00 z
b00 "!
0"z
b00000 #b
0"{
b00000 #a
0"|
b00 ""
0"}
b00 u
b00 t
b00 s
b00 r
b00000 #Z
0#d
0#e
b00000 #\
0#f
b00000 #[
0#g
b00000 #^
0#h
b00000 #]
0#i
b00000 #`
b00000 #_
b00000 $3
b00000 $2
b00000 $7
b000 :
0#y
b00000 $1
b00000 $0
0#{
b00000 #B
0#|
b00 O
b00000 #D
b00000 #C
b00000 $$
b00000 #E
b00000 "Y
b00000 "X
b00000 "[
b00000 "Z
b00000 "\
b00000 "Q
b00000 "P
b00000 "S
b00000 "R
b00000 "U
b00000 "T
b000000000 #A
b00000000 "'
b00000000 "&
b00000000 "%
b00000000 "+
b00000000 "*
b00000000 ")
b00000000 "(
b00000000 ".
b00000000 ",
b00000000 "3
b00000000 "2
b00000000 "0
b00000000 "7
b00000000 "6
b00000000 "5
b00000000 "4
b00000000 ";
b00000000 "9
b000000000 ">
b00000000 "C
b00000000 #0
b00000000 #2
b00000000 #1
b00000000 "V
b00000000 #7
b00000000 #5
b00000000 $!
b00000000 "]
b00000000 "c
b00000000 $%
b00000000 "b
b00000000 "a
b00000000 "`
b0000000000000000 #V
b0000000000000000 #W
b0000000000000000 #X
b0000000000000000 "~
b000 $(
b0000000000000000 $&
b0000000000000000 $'
b000 #F
b000 $"
b000 $#
b0000000000000000 "k
b00000 +
b0000000000000000 "q
b0000000000000000 #R
b000 $8
b0000000000000000 #z
b000 #Y
b000 #c
b0000000000000000 #p
b0000000000000000 #t
b00000000 *
b00000000 -
b00000000 '
b00000000 &
b00000000 )
b00000000 (
b00000000 #
b00000000 "
b00000000 %
b0000000000000000 f
b00000000 $
b0000 I
b00000000 !
b0000000000000000 j
b0000000000000000 q
b0000000000000000 p
b0000000000000000 o
b00000000 9
b00000000 1
b0000000000000000 A
b0000000000000000 @
b0000000000000000 ?
b0000000000000000 >
b000 "F
b000 #'
b000 #(
b000 "D
b000 #%
b000 #&
b000 ##
b000 #$
b000 #"
0,
b000 #)
0.
b000 #*
$end
#0
b10 $+
b10 $,
b0000000000000001 "k
b10 $-
1"l
1#T
b11111111 "t
b00000001 "u
b0000000000000001 #W
1#e
b10 #j
b10 #k
b10 #l
b10 #m
b10 #n
b11 #o
1#y
b1111111111111111 ;
b1111111111111111 <
b0000000000000001 >
b1111111111111111 ?
b10 "!
b1111111111111111 @
b11 ""
b1111111111111111 A
1H
b110 V
b100 W
b100 Y
b100 Z
b100 [
b100 \
b100 ]
b110 ^
b100 _
b100 #"
b100 ##
b011 a
b100 #$
b100 #%
b100 #&
b100 d
b100 #'
b100 #(
b0000000000000001 f
b100 #)
b110 #*
b10000 "J
b1111111111111111 "K
1#,
b0000000000000001 j
1#-
1k
b1111111111111111 "M
1#.
b1111111111111111 o
b1111111111111111 p
b1111111111111111 q
b01 s
b11111110 #7
b10 u
b10000 "X
b10 w
b0000000000000001 #:
b11 x
b0000000000000001 #;
b10 y
b10 z
b1111111111111111 #>
b10 |
b10 }
b10 ~
b00000001 "`
#1
1#f
#6
0#f
0#y
#11
b00000001 $%
0#T
b01 "E
1#f
#16
0#f
b11001101 $9
b11001101 "9
1"I
#21
b00000010 $%
b10 "E
1#f
#26
0#f
#31
b00000011 $%
b11 "E
1#f
1.
#36
0#f
#41
b00001 #C
b00000000 $%
b00001 #D
b00001 #E
b00000101 "j
b0000000000000010 "k
b00000010 ".
b00001 $0
b1111111111111111 "/
b00001 $1
b00001 $2
b00001 $3
b0000000000000001 #X
b11001101 ";
b0000000000000001 "?
1#d
0#e
b00 "E
1#f
0#,
b0000000000000010 j
0#-
b00001 +
0#.
b0000000000000001 #/
0.
b0000000000000001 /
b00001000 #2
b1111111111111111 #t
b11001101 #u
b11001101 #w
b0000000000000010 #:
b0000000000000010 #;
b010 :
b00000101 "a
b00001 #B
#46
0#f
b00010000 $9
b00010000 "9
0"I
#51
b00000001 $%
b01 "E
1#f
#56
0#f
#61
b00000010 $%
b10 "E
1#f
#66
0#f
#71
b00000011 $%
b11 "E
1#f
b001 "F
#76
0#f
#81
b00000000 $%
b00 "E
1#f
b000 "F
b0000000000000011 "k
b0000000000000011 j
b00000011 ".
b0000000000000010 #/
b0000000000000010 /
b0000000000010000 #4
b0000000000000010 #X
b0000000000000011 #:
b0000000000000011 #;
b011 :
b0000000000000010 "?
b0000000000010000 "A
#86
0#f
b00000000 $9
b00000000 "9
#91
b00000001 $%
b01 "E
1#f
#96
0#f
#101
b00000010 $%
b10 "E
1#f
#106
0#f
#111
b00000011 $%
b11 "E
1#f
b001 "F
#116
0#f
#121
b00000000 $%
b00 "E
b0000000000000011 $'
1#f
b000 "F
1#H
0H
b0000000000000100 "k
b0000000000000100 j
0"l
b00000100 ".
b1111111111111111 #/
b1111111111111111 /
1Q
b0000000000000011 #X
b0000000000000100 #:
b0000000000000100 #;
b100 :
b0000000000000011 "^
b0000000000000011 "?
#126
0#f
#131
b00000001 $%
b01 "E
1#f
#136
0#f
#141
b00000010 $%
b10 "E
1#f
#146
0#f
#151
b00000011 $%
b11 "E
1#f
b001 "F
#156
0#f
#161
b1111111111111110 @
b1111111111111110 A
b00000000 $%
b001 #F
b1111111111111110 "/
b1111111111111111 #V
b00000011 "y
b011111111 ">
b1111111111111111 "B
b001 "D
b00 "E
1#f
b00000001 g
b1111111111111110 "K
b1111111111111110 "M
b1111111111111110 #/
b1111111111111110 /
b1111111111111110 o
b1111111111111110 p
b00000011 #s
b00000011 1
b1111111111111110 q
b1111111111111110 #t
b1111111111111111 2
b1111111111111111 3
b1111111111111111 #z
b1111111111111111 #=
b1111111111111110 <
b1111111111111111 #?
b011111111 #A
#166
0#f
b00000011 $9
b00000011 "9
#171
b00000001 $%
b01 "E
1#f
#176
0#f
#181
b00000010 $%
b10 "E
1#f
#186
0#f
#191
b00000011 $%
b11 "E
b010 #F
1#f
b010 "F
#196
0#f
#201
b1111111111111101 @
b1111111111111101 A
b00000000 $%
b0000000000010000 $'
b10000000 "'
0#H
b0000000000000000 "/
0Q
b1111111111111110 #V
b00000000 "y
1"{
b011111110 ">
b1111111111111110 "B
0#d
b010 "D
b00 "E
1#f
b00000010 g
b1111111111111101 "K
b1111111111111101 "M
b0000000000000000 #/
b0000000000000000 /
b1111111111111101 o
b1111111111111101 p
b00000000 #s
b00000000 1
b1111111111111101 q
b1111111111111110 2
b1111111111111110 3
b1111111111111110 #z
b1111111111111110 #=
b10 #~
b1111111111111101 <
b1111111111111110 #?
b011111110 #A
b100 $#
#206
0#f
b11001101 $9
b11001101 "9
1"I
#211
b00000001 $%
b01 "E
1#f
#216
0#f
#221
b00000010 $%
b10 "E
1#f
#226
0#f
#231
b00000011 $%
b11 "E
1#f
1"x
1.
#236
0#f
#241
b00000000 $%
b000 #F
b00000000 "'
1H
b0000000000010001 "k
1"l
b00000000 ".
b1111111111111101 "/
1#T
b0000000000010000 #X
0"x
0"{
b0000000000010000 "?
1#d
b000 "D
b00 "E
1#f
b000 "F
b00000000 g
b0000000000010001 j
b0000000000010000 #/
0.
b0000000000010000 /
b1111111111111101 #t
b0000000000010001 #:
b0000000000010001 #;
b000 :
b00 #~
b0000000000010000 "^
b000 $#
#246
0#f
b11001001 $9
b11001001 "9
0"I
#251
b00000001 $%
0#T
b01 "E
1#f
#256
0#f
#261
b00000010 $%
b10 "E
1#f
#266
0#f
#271
b00000011 $%
b11 "E
1#f
b001 "F
#276
0#f
#281
b00000000 $%
b0000000000010001 $'
b00000001 "j
b0000000000010010 "k
b00000100 ".
b1111111111111110 "/
b0000000000010001 #X
1":
b11001001 ";
b0000000000010001 "?
0#d
b00 "E
1#f
b000 "F
b0000000000010010 j
b1111111111111110 #/
b1111111111111110 /
b1111111111111110 #t
b11001001 #u
b11001001 #w
b0000000000010010 #:
b0000000000010010 #;
b100 :
b0000000000010001 "^
b00000001 "a
#286
0#f
b00000011 $9
b00000011 "9
#291
b00000001 $%
b01 "E
1#f
#296
0#f
#301
b00000010 $%
b10 "E
1#f
#306
0#f
#311
b00000011 $%
b1111111111111111 #t
b11 "E
1#f
b001 "F
b00000011 "0
#316
0#f
#321
b1111111111111110 @
b1111111111111110 A
b00000000 $%
b001 #F
b1111111111111111 "/
b0000000000000011 "1
b1111111111111111 #V
b100000010 ">
b001 `
b1111111111111111 "B
b001 "D
b001 c
b00 "E
1#f
b00000001 g
b00000011 h
b1111111111111110 "K
b1111111111111110 "M
b1111111111111111 #/
b0000000000000011 #p
b1111111111111111 /
b1111111111111110 o
10
b1111111111111110 p
1#3
b1111111111111110 q
b1111111111111111 2
b1111111111111111 3
14
15
b1111111111111111 #z
b00000011 9
b10000 "[
b10000 "\
b0000000000000010 #=
b1111111111111110 <
b0000000000000010 #?
b00000011 $!
b100000010 #A
#326
0#f
b00000000 $9
b00000000 "9
#331
b00000001 $%
b01 "E
1#f
#336
0#f
#341
b00000010 $%
b10 "E
1#f
#346
0#f
#351
b00000011 $%
b0000000000000000 #t
b11 "E
b010 #F
b0000000000000011 $'
1#f
1.
#356
0#f
#361
b1111111111111111 @
b1111111111111111 A
b00000000 $%
b000 #F
b0000000000000100 "k
b00000000 ".
b0000000000000000 "/
1#T
b0000000000000000 #V
b0000000000000011 #X
b000000011 ">
b0000000000000011 "?
b000 `
b0000000000000000 "B
b000 "D
b000 c
b00 "E
1#f
b000 "F
b00000000 g
b1111111111111111 "K
b0000000000000100 j
b1111111111111111 "M
b0000000000000011 #/
0.
b0000000000000011 /
b1111111111111111 o
00
b1111111111111111 p
0#3
b1111111111111111 q
b0000000000000000 2
b0000000000000000 3
04
05
b0000000000000100 #:
b0000000000000000 #z
b0000000000000100 #;
b00000 "[
b000 :
b00000 "\
b0000000000000011 #=
b1111111111111111 <
b0000000000000011 "^
b0000000000000011 #?
b000000011 #A
#366
0#f
#371
b00000001 $%
0#T
b01 "E
1#f
#376
0#f
#381
b00000010 $%
b10 "E
1#f
#386
0#f
#391
b00000011 $%
b0000000000000001 #t
b11 "E
1#f
b001 "F
b00000000 "0
#396
0#f
#401
b00000 #C
b00000000 $%
b00000 #D
b00000 #E
b0000000000000100 $'
0H
b00000000 "j
b0000000000000101 "k
0"l
b00000100 ".
b00000 $0
b00000 $1
b00000011 "0
b00000 $2
b00000 $3
b0000000000000100 #X
0":
b00000000 ";
b0000000000000100 "?
1#e
b00 "E
1#f
b000 "F
1#,
b0000000000000101 j
1#-
b00000 +
1#.
b0000000000000000 #/
b0000000000000000 /
b00000000 #2
b0000000000000000 #t
b00000000 #u
b00000000 #w
b0000000000000101 #:
b0000000000000101 #;
b100 :
b0000000000000100 "^
b00000000 "a
b00000 #B
#406
0#f
b11001101 $9
b11001101 "9
1"I
#411
b00000001 $%
b01 "E
1#f
#416
0#f
#421
b00000010 $%
b10 "E
1#f
#426
0#f
#431
b00000011 $%
b11 "E
1#f
1.
#436
0#f
#441
b00000000 $%
1#T
b00 "E
1#f
1H
b000 :
1"l
b00000000 ".
b0000000000000100 #/
0.
b0000000000000100 /
#446
0#f
b00000000 $9
b00000000 "9
0"I
#451
b00000001 $%
0#T
b01 "E
1#f
#456
0#f
#461
b00000010 $%
b10 "E
1#f
#466
0#f
#471
b00000011 $%
b11 "E
1#f
1.
#476
0#f
#481
b00000000 $%
b00 "E
b0000000000000101 $'
1#f
0H
b0000000000000110 "k
b0000000000000110 j
0"l
b00000100 ".
b0000000000000000 #/
0.
b0000000000000000 /
b0000000000000101 #X
b0000000000000110 #:
b0000000000000110 #;
b100 :
b0000000000000101 "^
b0000000000000101 "?
#486
0#f
b11001101 $9
b11001101 "9
1"I
#491
b00000001 $%
b01 "E
1#f
#496
0#f
#501
b00000010 $%
b10 "E
1#f
#506
0#f
#511
b00000011 $%
b11 "E
1#f
1.
#516
0#f
b00000000 "9
